Lab5/simulation/qsim/lab5.msim.vcd
$comment
	File created using the following command:
		vcd file lab5.msim.vcd -direction
$end
$date
	Fri Jan 20 17:09:38 2023
$end
$version
	ModelSim Version 10.1d
$end
$timescale
	1ps
$end
$scope module lab5_vlg_vec_tst $end
$var reg 1 ! CLOCK_50_2 $end
$var reg 10 " SW [9:0] $end
$var wire 1 # coffe [4] $end
$var wire 1 $ coffe [3] $end
$var wire 1 % coffe [2] $end
$var wire 1 & coffe [1] $end
$var wire 1 ' coffe [0] $end
$var wire 1 ( money [4] $end
$var wire 1 ) money [3] $end
$var wire 1 * money [2] $end
$var wire 1 + money [1] $end
$var wire 1 , money [0] $end
$var wire 1 - money_H [4] $end
$var wire 1 . money_H [3] $end
$var wire 1 / money_H [2] $end
$var wire 1 0 money_H [1] $end
$var wire 1 1 money_H [0] $end
$var wire 1 2 money_L [4] $end
$var wire 1 3 money_L [3] $end
$var wire 1 4 money_L [2] $end
$var wire 1 5 money_L [1] $end
$var wire 1 6 money_L [0] $end
$var wire 1 7 sampler $end
$scope module i1 $end
$var wire 1 8 gnd $end
$var wire 1 9 vcc $end
$var wire 1 : unknown $end
$var tri1 1 ; devclrn $end
$var tri1 1 < devpor $end
$var tri1 1 = devoe $end
$var wire 1 > SW[5]~input_o $end
$var wire 1 ? SW[6]~input_o $end
$var wire 1 @ SW[7]~input_o $end
$var wire 1 A SW[8]~input_o $end
$var wire 1 B money[0]~output_o $end
$var wire 1 C money[1]~output_o $end
$var wire 1 D money[2]~output_o $end
$var wire 1 E money[3]~output_o $end
$var wire 1 F money[4]~output_o $end
$var wire 1 G coffe[0]~output_o $end
$var wire 1 H coffe[1]~output_o $end
$var wire 1 I coffe[2]~output_o $end
$var wire 1 J coffe[3]~output_o $end
$var wire 1 K coffe[4]~output_o $end
$var wire 1 L money_H[0]~output_o $end
$var wire 1 M money_H[1]~output_o $end
$var wire 1 N money_H[2]~output_o $end
$var wire 1 O money_H[3]~output_o $end
$var wire 1 P money_H[4]~output_o $end
$var wire 1 Q money_L[0]~output_o $end
$var wire 1 R money_L[1]~output_o $end
$var wire 1 S money_L[2]~output_o $end
$var wire 1 T money_L[3]~output_o $end
$var wire 1 U money_L[4]~output_o $end
$var wire 1 V CLOCK_50_2~input_o $end
$var wire 1 W CLOCK_50_2~inputclkctrl_outclk $end
$var wire 1 X SW[9]~input_o $end
$var wire 1 Y SW[4]~input_o $end
$var wire 1 Z i_fsm|mode~11_combout $end
$var wire 1 [ SW[3]~input_o $end
$var wire 1 \ i_fsm|mode~13_combout $end
$var wire 1 ] i_fsm|mode.modeCHARGE~q $end
$var wire 1 ^ i_fsm|mode~10_combout $end
$var wire 1 _ i_fsm|mode.modeINPUT~q $end
$var wire 1 ` i_fsm|money~27_combout $end
$var wire 1 a i_fsm|money~17_combout $end
$var wire 1 b i_fsm|money~14_combout $end
$var wire 1 c i_fsm|money~9_combout $end
$var wire 1 d SW[0]~input_o $end
$var wire 1 e SW[1]~input_o $end
$var wire 1 f i_fsm|Add0~1 $end
$var wire 1 g i_fsm|Add0~2_combout $end
$var wire 1 h i_fsm|Add1~1 $end
$var wire 1 i i_fsm|Add1~2_combout $end
$var wire 1 j i_fsm|money~11_combout $end
$var wire 1 k i_fsm|money~12_combout $end
$var wire 1 l SW[2]~input_o $end
$var wire 1 m i_fsm|money~13_combout $end
$var wire 1 n i_fsm|money~15_combout $end
$var wire 1 o i_fsm|money~16_combout $end
$var wire 1 p i_fsm|Add1~3 $end
$var wire 1 q i_fsm|Add1~4_combout $end
$var wire 1 r i_fsm|Add4~0_combout $end
$var wire 1 s i_fsm|money~18_combout $end
$var wire 1 t i_fsm|money~19_combout $end
$var wire 1 u i_fsm|Add0~3 $end
$var wire 1 v i_fsm|Add0~4_combout $end
$var wire 1 w i_fsm|money~20_combout $end
$var wire 1 x i_fsm|money~21_combout $end
$var wire 1 y i_fsm|money~22_combout $end
$var wire 1 z i_fsm|money~35_combout $end
$var wire 1 { i_fsm|money~32_combout $end
$var wire 1 | i_fsm|money~29_combout $end
$var wire 1 } i_fsm|money~30_combout $end
$var wire 1 ~ i_fsm|Add1~5 $end
$var wire 1 !! i_fsm|Add1~7 $end
$var wire 1 "! i_fsm|Add1~8_combout $end
$var wire 1 #! i_fsm|money~31_combout $end
$var wire 1 $! i_fsm|Add0~5 $end
$var wire 1 %! i_fsm|Add0~7 $end
$var wire 1 &! i_fsm|Add0~8_combout $end
$var wire 1 '! i_fsm|money~28_combout $end
$var wire 1 (! i_fsm|money~33_combout $end
$var wire 1 )! i_fsm|money~34_combout $end
$var wire 1 *! i_fsm|LessThan0~0_combout $end
$var wire 1 +! i_fsm|LessThan0~1_combout $end
$var wire 1 ,! i_fsm|money~10_combout $end
$var wire 1 -! i_fsm|Add4~1_combout $end
$var wire 1 .! i_fsm|Add0~6_combout $end
$var wire 1 /! i_fsm|Add1~6_combout $end
$var wire 1 0! i_fsm|money~23_combout $end
$var wire 1 1! i_fsm|money~24_combout $end
$var wire 1 2! i_fsm|money~25_combout $end
$var wire 1 3! i_fsm|money~26_combout $end
$var wire 1 4! i_fsm|money~2_combout $end
$var wire 1 5! i_fsm|money~3_combout $end
$var wire 1 6! i_fsm|mode~12_combout $end
$var wire 1 7! i_fsm|mode.modeCOFFE~q $end
$var wire 1 8! i_fsm|mode~9_combout $end
$var wire 1 9! i_fsm|money~5_combout $end
$var wire 1 :! i_fsm|Add1~0_combout $end
$var wire 1 ;! i_fsm|Add0~0_combout $end
$var wire 1 <! i_fsm|money~4_combout $end
$var wire 1 =! i_fsm|money~6_combout $end
$var wire 1 >! i_fsm|money~7_combout $end
$var wire 1 ?! i_fsm|money~8_combout $end
$var wire 1 @! i_fsm|coffe[0]~5_combout $end
$var wire 1 A! i_fsm|coffe[0]~7_combout $end
$var wire 1 B! i_fsm|coffe[0]~6 $end
$var wire 1 C! i_fsm|coffe[1]~8_combout $end
$var wire 1 D! i_fsm|coffe[1]~9 $end
$var wire 1 E! i_fsm|coffe[2]~10_combout $end
$var wire 1 F! i_fsm|coffe[2]~11 $end
$var wire 1 G! i_fsm|coffe[3]~12_combout $end
$var wire 1 H! i_fsm|coffe[3]~13 $end
$var wire 1 I! i_fsm|coffe[4]~14_combout $end
$var wire 1 J! i_fsm|Div0|auto_generated|divider|divider|add_sub_3_result_int[1]~1 $end
$var wire 1 K! i_fsm|Div0|auto_generated|divider|divider|add_sub_3_result_int[2]~3 $end
$var wire 1 L! i_fsm|Div0|auto_generated|divider|divider|add_sub_3_result_int[3]~5 $end
$var wire 1 M! i_fsm|Div0|auto_generated|divider|divider|add_sub_3_result_int[4]~6_combout $end
$var wire 1 N! i_fsm|Div0|auto_generated|divider|divider|add_sub_3_result_int[3]~4_combout $end
$var wire 1 O! i_fsm|Div0|auto_generated|divider|divider|StageOut[18]~1_combout $end
$var wire 1 P! i_fsm|Div0|auto_generated|divider|divider|StageOut[18]~0_combout $end
$var wire 1 Q! i_fsm|Div0|auto_generated|divider|divider|StageOut[17]~2_combout $end
$var wire 1 R! i_fsm|Div0|auto_generated|divider|divider|add_sub_3_result_int[2]~2_combout $end
$var wire 1 S! i_fsm|Div0|auto_generated|divider|divider|StageOut[17]~3_combout $end
$var wire 1 T! i_fsm|Div0|auto_generated|divider|divider|add_sub_3_result_int[1]~0_combout $end
$var wire 1 U! i_fsm|Div0|auto_generated|divider|divider|StageOut[16]~5_combout $end
$var wire 1 V! i_fsm|Div0|auto_generated|divider|divider|StageOut[16]~4_combout $end
$var wire 1 W! i_fsm|Div0|auto_generated|divider|divider|StageOut[15]~7_combout $end
$var wire 1 X! i_fsm|Div0|auto_generated|divider|divider|StageOut[15]~6_combout $end
$var wire 1 Y! i_fsm|Div0|auto_generated|divider|divider|add_sub_4_result_int[1]~1_cout $end
$var wire 1 Z! i_fsm|Div0|auto_generated|divider|divider|add_sub_4_result_int[2]~3_cout $end
$var wire 1 [! i_fsm|Div0|auto_generated|divider|divider|add_sub_4_result_int[3]~5_cout $end
$var wire 1 \! i_fsm|Div0|auto_generated|divider|divider|add_sub_4_result_int[4]~7_cout $end
$var wire 1 ]! i_fsm|Div0|auto_generated|divider|divider|add_sub_4_result_int[5]~8_combout $end
$var wire 1 ^! i_fsm|Mod1|auto_generated|divider|divider|add_sub_3_result_int[1]~1 $end
$var wire 1 _! i_fsm|Mod1|auto_generated|divider|divider|add_sub_3_result_int[2]~3 $end
$var wire 1 `! i_fsm|Mod1|auto_generated|divider|divider|add_sub_3_result_int[3]~5 $end
$var wire 1 a! i_fsm|Mod1|auto_generated|divider|divider|add_sub_3_result_int[4]~6_combout $end
$var wire 1 b! i_fsm|Mod1|auto_generated|divider|divider|StageOut[15]~0_combout $end
$var wire 1 c! i_fsm|Mod1|auto_generated|divider|divider|StageOut[15]~1_combout $end
$var wire 1 d! i_fsm|Mod1|auto_generated|divider|divider|add_sub_4_result_int[1]~0_combout $end
$var wire 1 e! i_fsm|Mod1|auto_generated|divider|divider|StageOut[18]~2_combout $end
$var wire 1 f! i_fsm|Mod1|auto_generated|divider|divider|add_sub_3_result_int[3]~4_combout $end
$var wire 1 g! i_fsm|Mod1|auto_generated|divider|divider|StageOut[18]~3_combout $end
$var wire 1 h! i_fsm|Mod1|auto_generated|divider|divider|add_sub_3_result_int[2]~2_combout $end
$var wire 1 i! i_fsm|Mod1|auto_generated|divider|divider|StageOut[17]~5_combout $end
$var wire 1 j! i_fsm|Mod1|auto_generated|divider|divider|StageOut[17]~4_combout $end
$var wire 1 k! i_fsm|Mod1|auto_generated|divider|divider|add_sub_3_result_int[1]~0_combout $end
$var wire 1 l! i_fsm|Mod1|auto_generated|divider|divider|StageOut[16]~7_combout $end
$var wire 1 m! i_fsm|Mod1|auto_generated|divider|divider|StageOut[16]~6_combout $end
$var wire 1 n! i_fsm|Mod1|auto_generated|divider|divider|add_sub_4_result_int[1]~1 $end
$var wire 1 o! i_fsm|Mod1|auto_generated|divider|divider|add_sub_4_result_int[2]~3 $end
$var wire 1 p! i_fsm|Mod1|auto_generated|divider|divider|add_sub_4_result_int[3]~5 $end
$var wire 1 q! i_fsm|Mod1|auto_generated|divider|divider|add_sub_4_result_int[4]~7_cout $end
$var wire 1 r! i_fsm|Mod1|auto_generated|divider|divider|add_sub_4_result_int[5]~8_combout $end
$var wire 1 s! i_fsm|Mod1|auto_generated|divider|divider|StageOut[21]~8_combout $end
$var wire 1 t! i_fsm|Mod1|auto_generated|divider|divider|add_sub_4_result_int[2]~2_combout $end
$var wire 1 u! i_fsm|Mod1|auto_generated|divider|divider|StageOut[22]~9_combout $end
$var wire 1 v! i_fsm|Mod1|auto_generated|divider|divider|add_sub_4_result_int[3]~4_combout $end
$var wire 1 w! i_fsm|Mod1|auto_generated|divider|divider|StageOut[23]~10_combout $end
$var wire 1 x! i_fsm|coffe [4] $end
$var wire 1 y! i_fsm|coffe [3] $end
$var wire 1 z! i_fsm|coffe [2] $end
$var wire 1 {! i_fsm|coffe [1] $end
$var wire 1 |! i_fsm|coffe [0] $end
$var wire 1 }! i_fsm|money [4] $end
$var wire 1 ~! i_fsm|money [3] $end
$var wire 1 !" i_fsm|money [2] $end
$var wire 1 "" i_fsm|money [1] $end
$var wire 1 #" i_fsm|money [0] $end
$upscope $end
$upscope $end
$enddefinitions $end
#0
$dumpvars
0!
b0 "
0'
0&
0%
0$
0#
0,
0+
0*
0)
0(
01
00
0/
0.
0-
06
05
04
03
02
x7
08
19
x:
1;
1<
1=
0>
0?
0@
0A
0B
0C
0D
0E
0F
0G
0H
0I
0J
0K
0L
0M
0N
0O
0P
0Q
0R
0S
0T
0U
0V
0W
0X
0Y
0Z
0[
0\
0]
0^
0_
0`
1a
0b
0c
0d
0e
0f
0g
0h
0i
0j
0k
0l
0m
0n
0o
1p
1q
0r
0s
0t
1u
0v
0w
0x
0y
0z
1{
1|
1}
0~
1!!
0"!
1#!
0$!
1%!
0&!
0'!
0(!
0)!
0*!
0+!
1,!
0-!
0.!
0/!
00!
01!
02!
03!
04!
05!
06!
07!
08!
09!
1:!
1;!
0<!
0=!
0>!
0?!
1@!
0A!
0B!
0C!
1D!
0E!
0F!
0G!
1H!
0I!
0J!
1K!
0L!
1M!
0N!
0O!
0P!
0Q!
1R!
0S!
1T!
0U!
0V!
0W!
0X!
0Y!
1Z!
0[!
1\!
1]!
0^!
1_!
0`!
1a!
0b!
0c!
1d!
0e!
0f!
0g!
1h!
0i!
0j!
1k!
0l!
0m!
0n!
1o!
0p!
1q!
1r!
0s!
1t!
0u!
0v!
0w!
0|!
0{!
0z!
0y!
0x!
0#"
0""
0!"
0~!
0}!
$end
#500
1!
1V
1W
07
#1000
b1 "
0!
1d
0V
0W
17
1<!
1t
1=!
1>!
1?!
#1500
1!
1V
1W
07
1#"
0?!
0=!
19!
1h
0:!
1f
0;!
1Q
1B
16
1,
0>!
1i
0<!
1g
1?!
1j
1=!
1k
1>!
1m
0?!
1n
#2000
b0 "
0!
0d
0V
0W
17
09!
0t
0k
0=!
0m
0>!
0n
1?!
#2500
1!
1V
1W
07
#3000
b1 "
0!
1d
0V
0W
17
19!
1t
1k
1=!
1m
1>!
1n
0?!
#3500
1!
1V
1W
07
0#"
1""
1?!
0=!
09!
0h
1:!
0f
1;!
1b!
1X!
1r
0m
0k
0p
0i
0u
0g
0Q
0B
1C
06
0,
1+
1s!
0>!
1p
1i
1<!
1u
1g
1n!
0d!
1Y!
0n
1m
1~
0q
0j
1v
1R
15
0?!
0~
1q
1j
1=!
0v
0o!
0t!
0Z!
1n
1/!
1k
1w
0/!
1x
0k
1>!
0w
1v!
0m
1y
1m
1?!
0x
0n
1z
1n
0y
0z
#4000
b0 "
0!
0d
0V
0W
17
0<!
0t
0=!
0>!
0?!
#4500
1!
1V
1W
07
#5000
b1 "
0!
1d
0V
0W
17
1<!
1t
1=!
1>!
1?!
#5500
1!
1V
1W
07
1#"
0?!
0=!
19!
1h
0:!
1f
0;!
1Q
1B
16
1,
0>!
0p
0i
0<!
0u
0g
1?!
1~
0q
0j
1=!
1v
1/!
1k
1>!
1w
0m
0?!
1x
0n
1y
1z
#6000
b0 "
0!
0d
0V
0W
17
09!
0t
0k
0=!
0w
1m
0>!
0x
1n
1?!
0y
0z
#6500
1!
1V
1W
07
#7000
b1 "
0!
1d
0V
0W
17
19!
1t
1k
1=!
1w
0m
1>!
1x
0n
0?!
1y
1z
#7500
1!
1V
1W
07
0#"
1!"
0""
1?!
0=!
09!
0h
1:!
0f
1;!
1m!
1^!
0k!
1V!
1J!
0T!
1$!
0v
1q
0b!
0X!
1m
0k
1p
1i
1u
1g
0Q
0B
1D
0C
06
0,
1*
0+
0s!
0>!
0i
1<!
0g
1t!
0_!
0h!
0K!
0R!
1.!
0w
0n!
1d!
0Y!
1n
0m
0q
1j
0$!
1v
0R
05
1u!
0?!
0j
1=!
1f!
1N!
11!
0x
0t!
0n
1k
0.!
1w
1S
14
0k
1>!
12!
0y
1m
01!
1x
0m
1?!
13!
0z
1n
02!
1y
0n
03!
1z
#8000
b0 "
0!
0d
0V
0W
17
0<!
0t
0=!
0>!
0?!
#8500
1!
1V
1W
07
#9000
b1 "
0!
1d
0V
0W
17
1<!
1t
1=!
1>!
1?!
#9500
1!
1V
1W
07
1#"
0?!
0=!
19!
1h
0:!
1f
0;!
1Q
1B
16
1,
0>!
1i
0<!
1g
1?!
1j
1=!
1k
1>!
1m
0?!
1n
#10000
b0 "
0!
0d
0V
0W
17
09!
0t
0k
0=!
0m
0>!
0n
1?!
#10500
1!
1V
1W
07
#11000
b1 "
0!
1d
0V
0W
17
19!
1t
1k
1=!
1m
1>!
1n
0?!
#11500
1!
1V
1W
07
0#"
1""
1?!
0=!
09!
0h
1:!
0f
1;!
1b!
1X!
14!
1-!
0|
0{
0r
0m
0k
0p
0i
0u
0g
0Q
0B
1C
06
0,
1+
1s!
0>!
1p
1i
1<!
1u
1g
1n!
0d!
1Y!
0n
1m
1q
0j
1$!
0v
1R
15
0?!
0q
1j
1=!
0$!
1v
1t!
1n
1k
1.!
0w
0x
0k
1>!
0.!
1w
0m
11!
0y
1m
1?!
01!
1x
0n
12!
0z
1n
02!
1y
13!
03!
1z
#12000
b0 "
0!
0d
0V
0W
17
0<!
0t
0=!
0>!
0?!
#12500
1!
1V
1W
07
#13000
b1 "
0!
1d
0V
0W
17
1<!
1t
1=!
1>!
1?!
#13500
1!
1V
1W
07
1#"
0?!
0=!
19!
1h
0:!
1f
0;!
1Q
1B
16
1,
0>!
0p
0i
0<!
0u
0g
1?!
1q
0j
1=!
1$!
0v
1k
1>!
1.!
0w
0m
0?!
11!
0x
0n
12!
0y
13!
0z
#14000
b0 "
0!
0d
0V
0W
17
09!
0t
0k
0=!
01!
1w
1m
0>!
02!
1x
1n
1?!
03!
1y
1z
#14500
1!
1V
1W
07
#15000
b1 "
0!
1d
0V
0W
17
19!
1t
1k
1=!
11!
0w
0m
1>!
12!
0x
0n
0?!
13!
0y
0z
#15500
1!
1V
1W
07
0#"
1~!
0!"
0""
1?!
0=!
09!
0h
1:!
0f
1;!
1j!
1h!
1Q!
1R!
0%!
0.!
0!!
0/!
0m!
0^!
1k!
0V!
0J!
1T!
0$!
1v
0q
0b!
0X!
1m
0k
1p
1i
1u
1g
0Q
0B
1E
0D
0C
06
0,
1)
0*
0+
0s!
0>!
0i
1<!
0g
1p!
0v!
1[!
1&!
01!
1"!
0t!
0h!
0R!
1%!
1.!
1w
0n!
1d!
0Y!
1n
0m
0~
1q
1j
0v
0R
05
1w!
0u!
0?!
0j
1=!
0q!
0\!
1'!
02!
0&!
11!
1x
1o!
1t!
1Z!
0n
1!!
1/!
1k
0w
1T
0S
13
04
0k
1>!
0r!
0]!
1(!
03!
0'!
12!
1y
0p!
1v!
0[!
0"!
1m
0x
0m
1?!
1)!
0(!
13!
1z
1q!
1\!
1n
0y
1L
11
1u!
1s!
0n
0)!
1r!
1]!
0z
1S
1R
14
15
0L
01
0u!
0s!
0S
0R
04
05
#16000
b0 "
0!
0d
0V
0W
17
0<!
0t
0=!
01!
10!
0>!
02!
11!
0?!
03!
12!
13!
#16500
1!
1V
1W
07
#17000
b1 "
0!
1d
0V
0W
17
1<!
1t
1=!
01!
00!
1>!
02!
11!
1?!
03!
12!
13!
#17500
1!
1V
1W
07
1#"
0?!
0=!
19!
1h
0:!
1f
0;!
1Q
1B
16
1,
0>!
1i
0<!
1g
1?!
1j
1=!
1k
1>!
1m
0?!
1n
#18000
b0 "
0!
0d
0V
0W
17
09!
0t
0k
0=!
01!
10!
0m
0>!
02!
11!
0n
1?!
03!
12!
13!
#18500
1!
1V
1W
07
#19000
b1 "
0!
1d
0V
0W
17
19!
1t
1k
1=!
01!
00!
1m
1>!
02!
11!
1n
0?!
03!
12!
13!
#19500
1!
1V
1W
07
0#"
1""
1?!
0=!
09!
0h
1:!
0f
1;!
1b!
1X!
1r
0m
0k
0p
0i
0u
0g
0Q
0B
1C
06
0,
1+
1s!
0>!
1p
1i
1<!
1u
1g
1n!
0d!
1Y!
0n
1m
1~
0q
0j
1v
1R
15
0?!
0~
1q
1j
1=!
0v
0o!
0t!
0Z!
1n
0!!
0/!
1k
1w
1!!
1/!
1x
0k
1>!
0w
1p!
0v!
1[!
1"!
0m
0"!
1y
1m
1?!
0x
0q!
0\!
0n
1z
1n
0y
0r!
0]!
0z
1L
11
0w!
0s!
0T
0R
03
05
#20000
b0 "
0!
0d
0V
0W
17
0<!
0t
0=!
01!
10!
0>!
02!
11!
0?!
03!
12!
13!
#20500
1!
1V
1W
07
#21000
b1 "
0!
1d
0V
0W
17
1<!
1t
1=!
01!
00!
1>!
02!
11!
1?!
03!
12!
13!
#21500
1!
1V
1W
07
1#"
0?!
0=!
19!
1h
0:!
1f
0;!
1Q
1B
16
1,
0>!
0p
0i
0<!
0u
0g
1?!
1~
0q
0j
1=!
1v
0!!
0/!
1k
1>!
1w
1"!
0m
0?!
1x
0n
1y
1z
#22000
b0 "
0!
0d
0V
0W
17
09!
0t
0k
0=!
01!
10!
0w
1m
0>!
02!
11!
0x
1n
1?!
03!
12!
0y
13!
0z
#22500
1!
1V
1W
07
#23000
b1 "
0!
1d
0V
0W
17
19!
1t
1k
1=!
01!
00!
1w
0m
1>!
02!
11!
1x
0n
0?!
03!
12!
1y
13!
1z
#23500
1!
1V
1W
07
0#"
1!"
0""
1?!
0=!
09!
0h
1:!
0f
1;!
1m!
1^!
0k!
1V!
1J!
0T!
1$!
0v
1q
0b!
0X!
1m
0k
1p
1i
1u
1g
0Q
0B
1D
0C
06
0,
1*
0+
0>!
0i
1<!
0g
1t!
1h!
1R!
0%!
0.!
0w
0n!
1d!
0Y!
1n
0m
0q
1j
0$!
1v
0?!
0j
1=!
1&!
01!
0x
0t!
0n
1k
1%!
1.!
1w
1u!
1s!
0k
1>!
1'!
02!
0y
1m
0&!
11!
1x
1S
1R
14
15
0u!
0m
1?!
1(!
03!
0z
1n
0'!
12!
1y
0S
04
0n
1)!
0(!
13!
1z
0)!
#24000
b0 "
0!
0d
0V
0W
17
0<!
0t
0=!
01!
10!
0>!
02!
11!
0?!
03!
12!
13!
#24500
1!
1V
1W
07
#25000
b1 "
0!
1d
0V
0W
17
1<!
1t
1=!
01!
00!
1>!
02!
11!
1?!
03!
12!
13!
#25500
1!
1V
1W
07
1#"
0?!
0=!
19!
1h
0:!
1f
0;!
1Q
1B
16
1,
0>!
1i
0<!
1g
1?!
1j
1=!
1k
1>!
1m
0?!
1n
#26000
b0 "
0!
0d
0V
0W
17
09!
0t
0k
0=!
01!
10!
0m
0>!
02!
11!
0n
1?!
03!
12!
13!
#26500
1!
1V
1W
07
#27000
b1 "
0!
1d
0V
0W
17
19!
1t
1k
1=!
01!
00!
1m
1>!
02!
11!
1n
0?!
03!
12!
13!
#27500
1!
1V
1W
07
0#"
1""
1?!
0=!
09!
0h
1:!
0f
1;!
1b!
1X!
0-!
0r
0m
0k
0p
0i
0u
0g
0Q
0B
1C
06
0,
1+
0>!
1p
1i
1<!
1u
1g
1n!
0d!
1Y!
0n
1m
1q
0j
1$!
0v
0?!
0q
1j
1=!
0$!
1v
1t!
1n
1k
0%!
0.!
0w
0s!
0x
0k
1>!
1%!
1.!
1w
0m
1&!
01!
0R
05
1u!
0y
1m
1?!
0&!
11!
1x
0n
1'!
02!
1S
14
0z
1n
0'!
12!
1y
1(!
03!
0(!
13!
1z
1)!
0)!
#28000
b0 "
0!
0d
0V
0W
17
0<!
0t
0=!
01!
10!
0>!
02!
11!
0?!
03!
12!
13!
#28500
1!
1V
1W
07
#29000
b1 "
0!
1d
0V
0W
17
1<!
1t
1=!
00!
1>!
1?!
#29500
1!
1V
1W
07
1#"
0?!
0=!
19!
1h
0:!
1f
0;!
1Q
1B
16
1,
0>!
0p
0i
0<!
0u
0g
1?!
1q
0j
1=!
1$!
0v
1k
1>!
0%!
0.!
0w
0m
0?!
1&!
01!
0x
0n
1'!
02!
0y
1(!
03!
0z
1)!
#30000
b0 "
0!
0d
0V
0W
17
09!
0t
0k
0=!
10!
0'!
1w
1m
0>!
11!
0(!
1x
1n
1?!
12!
0)!
1y
13!
1z
#30500
1!
1V
1W
07
#31000
b1 "
0!
1d
0V
0W
17
19!
1t
1k
1=!
00!
1'!
0w
0m
1>!
01!
1(!
0x
0n
0?!
02!
1)!
0y
03!
0z
#31500
1!
1V
1W
07
0#"
0~!
1}!
0!"
0""
1?!
0=!
09!
0h
1:!
0f
1;!
0j!
0h!
0Q!
0R!
1%!
1.!
1!!
1/!
1|
1e!
1`!
0f!
1P!
1L!
0N!
0&!
0"!
0m!
0^!
1k!
0V!
0J!
1T!
0$!
1v
0q
0b!
0X!
1m
0k
1p
1i
1u
1g
0Q
0B
0E
1F
0D
0C
06
0,
0)
1(
0*
0+
0>!
0i
1<!
0g
0p!
1v!
0[!
1&!
11!
1"!
0a!
0M!
0'!
0t!
1_!
1h!
1K!
1R!
0.!
1w
0n!
1d!
0Y!
1n
0m
0~
1q
1j
0v
0?!
0j
1=!
1'!
12!
1l!
1i!
0e!
1U!
1S!
0P!
0(!
0`!
1f!
0L!
1N!
01!
1x
1o!
1t!
1Z!
0n
0/!
1k
0w
1M
10
1w!
0u!
1s!
0k
1>!
1(!
13!
0o!
0t!
1q!
0Z!
1\!
0)!
1a!
1g!
1M!
1O!
02!
1y
1m
0x
1T
0S
1R
13
04
15
1u!
0m
1?!
1)!
1p!
0v!
1r!
1[!
1]!
0l!
0i!
0g!
1e!
0q!
0U!
0S!
1P!
0O!
0\!
03!
1z
1n
0y
0M
1S
00
14
0u!
0n
1o!
1t!
0p!
1v!
0r!
1Z!
0[!
0]!
0z
0L
0S
01
04
0w!
0s!
0v!
1L
0T
0R
11
03
05
1u!
1w!
1s!
1S
1T
1R
14
13
15
0w!
0T
03
#32000
b0 "
0!
0d
0V
0W
17
0<!
0t
0=!
0>!
0?!
#32500
1!
1V
1W
07
#33000
b1 "
0!
1d
0V
0W
17
1<!
1t
1=!
1>!
1?!
#33500
1!
1V
1W
07
1#"
0?!
0=!
19!
1h
0:!
1f
0;!
1Q
1B
16
1,
0>!
1i
0<!
1g
1?!
1j
1=!
1k
1>!
1m
0?!
1n
#34000
b0 "
0!
0d
0V
0W
17
09!
0t
0k
0=!
0m
0>!
0n
1?!
#34500
1!
1V
1W
07
#35000
b1 "
0!
1d
0V
0W
17
19!
1t
1k
1=!
1m
1>!
1n
0?!
#35500
1!
1V
1W
07
0#"
1""
1?!
0=!
09!
0h
1:!
0f
1;!
1b!
1X!
1r
0m
0k
0p
0i
0u
0g
0Q
0B
1C
06
0,
1+
0>!
1p
1i
1<!
1u
1g
1n!
0d!
1Y!
0n
1m
1~
0q
0j
1v
0?!
0~
1q
1j
1=!
0v
0o!
0t!
0Z!
1n
1/!
1k
1w
0s!
0/!
1x
0k
1>!
0w
1v!
0m
0R
05
0u!
1y
1m
1?!
0x
0n
0S
04
1w!
1z
1n
0y
1T
13
0z
#36000
b0 "
0!
0d
0V
0W
17
0<!
0t
0=!
0>!
0?!
#36500
1!
1V
1W
07
#37000
b1 "
0!
1d
0V
0W
17
1<!
1t
1=!
1>!
1?!
#37500
1!
1V
1W
07
1#"
0?!
0=!
19!
1h
0:!
1f
0;!
1Q
1B
16
1,
0>!
0p
0i
0<!
0u
0g
1?!
1~
0q
0j
1=!
1v
1/!
1k
1>!
1w
0m
0?!
1x
0n
1y
1z
#38000
b0 "
0!
0d
0V
0W
17
09!
0t
0k
0=!
0w
1m
0>!
0x
1n
1?!
0y
0z
#38500
1!
1V
1W
07
#39000
b1 "
0!
1d
0V
0W
17
19!
1t
1k
1=!
1w
0m
1>!
1x
0n
0?!
1y
1z
#39500
1!
1V
1W
07
0#"
1!"
0""
1?!
0=!
09!
0h
1:!
0f
1;!
1m!
1^!
0k!
1V!
1J!
0T!
1$!
0v
1q
0b!
0X!
1m
0k
1p
1i
1u
1g
0Q
0B
1D
0C
06
0,
1*
0+
0>!
0i
1<!
0g
1t!
0_!
0h!
0K!
0R!
1.!
0w
0n!
1d!
0Y!
1n
0m
0q
1j
0$!
1v
0?!
0j
1=!
1`!
0f!
1L!
0N!
11!
0x
0t!
0n
1k
0.!
1w
1u!
1s!
0k
1>!
0a!
0M!
12!
0y
1m
01!
1x
1S
1R
14
15
0u!
0m
1?!
0m!
0e!
0V!
0P!
13!
0z
1n
02!
1y
1M
0S
10
04
0n
1o!
1t!
1q!
1Z!
1\!
03!
1z
0v!
1r!
1]!
1u!
0L
1S
01
14
0w!
0u!
0s!
0T
0S
0R
03
04
05
#40000
b0 "
0!
0d
0V
0W
17
0<!
0t
0=!
0>!
0?!
#40500
1!
1V
1W
07
#41000
b1 "
0!
1d
0V
0W
17
1<!
1t
1=!
1>!
1?!
#41500
1!
1V
1W
07
1#"
0?!
0=!
19!
1*!
1h
0:!
1f
0;!
1Q
1B
16
1,
0>!
1+!
1i
0<!
1g
1?!
1=!
0,!
1j
1>!
1k
0?!
#42000
b0 "
0!
0d
0V
0W
17
09!
0t
0k
#42500
1!
1V
1W
07
0#"
1?!
0=!
0*!
0h
1:!
0f
1;!
0Q
0B
06
0,
0>!
0+!
0i
0g
0?!
1,!
0j
#43000
b1 "
0!
1d
0V
0W
17
1<!
1t
1=!
1>!
1?!
#43500
1!
1V
1W
07
1#"
0?!
0=!
19!
1*!
1h
0:!
1f
0;!
1Q
1B
16
1,
0>!
1+!
1i
0<!
1g
1?!
1=!
0,!
1j
1>!
1k
0?!
#44000
b0 "
0!
0d
0V
0W
17
09!
0t
0k
#44500
1!
1V
1W
07
0#"
1?!
0=!
0*!
0h
1:!
0f
1;!
0Q
0B
06
0,
0>!
0+!
0i
0g
0?!
1,!
0j
#45000
b1 "
0!
1d
0V
0W
17
1<!
1t
1=!
1>!
1?!
#45500
1!
1V
1W
07
1#"
0?!
0=!
19!
1*!
1h
0:!
1f
0;!
1Q
1B
16
1,
0>!
1+!
1i
0<!
1g
1?!
1=!
0,!
1j
1>!
1k
0?!
#46000
b0 "
0!
0d
0V
0W
17
09!
0t
0k
#46500
1!
1V
1W
07
0#"
1?!
0=!
0*!
0h
1:!
0f
1;!
0Q
0B
06
0,
0>!
0+!
0i
0g
0?!
1,!
0j
#47000
b1 "
0!
1d
0V
0W
17
1<!
1t
1=!
1>!
1?!
#47500
1!
1V
1W
07
1#"
0?!
0=!
19!
1*!
1h
0:!
1f
0;!
1Q
1B
16
1,
0>!
1+!
1i
0<!
1g
1?!
1=!
0,!
1j
1>!
1k
0?!
#48000
b0 "
0!
0d
0V
0W
17
09!
0t
0k
#48500
1!
1V
1W
07
0#"
1?!
0=!
0*!
0h
1:!
0f
1;!
0Q
0B
06
0,
0>!
0+!
0i
0g
0?!
1,!
0j
