Lab3/simulation/qsim/lab3.msim.vcd
$comment
	File created using the following command:
		vcd file lab3.msim.vcd -direction
$end
$date
	Fri Jan 20 15:15:19 2023
$end
$version
	ModelSim Version 10.1d
$end
$timescale
	1ps
$end
$scope module lab3_vlg_vec_tst $end
$var reg 1 ! BUTTON [0:0] $end
$var reg 1 " CLOCK_50_2 $end
$var reg 1 # SW [0:0] $end
$var wire 1 $ HEX1_D [6] $end
$var wire 1 % HEX1_D [5] $end
$var wire 1 & HEX1_D [4] $end
$var wire 1 ' HEX1_D [3] $end
$var wire 1 ( HEX1_D [2] $end
$var wire 1 ) HEX1_D [1] $end
$var wire 1 * HEX1_D [0] $end
$var wire 1 + KEYPULSE $end
$var wire 1 , OUT [2] $end
$var wire 1 - OUT [1] $end
$var wire 1 . OUT [0] $end
$var wire 1 / sampler $end
$scope module i1 $end
$var wire 1 0 gnd $end
$var wire 1 1 vcc $end
$var wire 1 2 unknown $end
$var tri1 1 3 devclrn $end
$var tri1 1 4 devpor $end
$var tri1 1 5 devoe $end
$var wire 1 6 OUT[0]~output_o $end
$var wire 1 7 OUT[1]~output_o $end
$var wire 1 8 OUT[2]~output_o $end
$var wire 1 9 KEYPULSE~output_o $end
$var wire 1 : HEX1_D[0]~output_o $end
$var wire 1 ; HEX1_D[1]~output_o $end
$var wire 1 < HEX1_D[2]~output_o $end
$var wire 1 = HEX1_D[3]~output_o $end
$var wire 1 > HEX1_D[4]~output_o $end
$var wire 1 ? HEX1_D[5]~output_o $end
$var wire 1 @ HEX1_D[6]~output_o $end
$var wire 1 A CLOCK_50_2~input_o $end
$var wire 1 B CLOCK_50_2~inputclkctrl_outclk $end
$var wire 1 C SW[0]~input_o $end
$var wire 1 D BUTTON[0]~input_o $end
$var wire 1 E i_pulseKey|q_DFF~feeder_combout $end
$var wire 1 F i_pulseKey|q_DFF~q $end
$var wire 1 G i_pulseKey|keyPulse~0_combout $end
$var wire 1 H i_pulseKey|keyPulse~q $end
$var wire 1 I i_fsm|Selector5~0_combout $end
$var wire 1 J i_fsm|state.101~q $end
$var wire 1 K i_fsm|Selector6~0_combout $end
$var wire 1 L i_fsm|state.110~q $end
$var wire 1 M i_fsm|Selector7~0_combout $end
$var wire 1 N i_fsm|state.111~q $end
$var wire 1 O i_fsm|Selector0~0_combout $end
$var wire 1 P i_fsm|state.000~q $end
$var wire 1 Q i_fsm|Selector1~0_combout $end
$var wire 1 R i_fsm|state.001~q $end
$var wire 1 S i_fsm|Selector2~0_combout $end
$var wire 1 T i_fsm|state.010~q $end
$var wire 1 U i_fsm|Selector3~0_combout $end
$var wire 1 V i_fsm|state.011~q $end
$var wire 1 W i_fsm|Selector4~0_combout $end
$var wire 1 X i_fsm|state.100~q $end
$var wire 1 Y i_fsm|outputdata~0_combout $end
$var wire 1 Z i_fsm|outputdata~1_combout $end
$var wire 1 [ i_fsm|outputdata~2_combout $end
$var wire 1 \ i_fsm|outputdata~3_combout $end
$var wire 1 ] i_fsm|outputdata~4_combout $end
$var wire 1 ^ i_seg|WideOr6~0_combout $end
$var wire 1 _ i_seg|WideOr5~0_combout $end
$var wire 1 ` i_seg|Decoder0~0_combout $end
$var wire 1 a i_seg|WideOr3~0_combout $end
$var wire 1 b i_seg|WideOr2~0_combout $end
$var wire 1 c i_seg|WideOr1~0_combout $end
$var wire 1 d i_seg|WideOr0~0_combout $end
$var wire 1 e i_fsm|outputdata [2] $end
$var wire 1 f i_fsm|outputdata [1] $end
$var wire 1 g i_fsm|outputdata [0] $end
$upscope $end
$upscope $end
$enddefinitions $end
#0
$dumpvars
b0 !
0"
b0 #
0*
0)
0(
0'
0&
0%
1$
0+
0.
0-
0,
x/
00
11
x2
13
14
15
06
07
08
09
0:
0;
0<
0=
0>
0?
1@
0A
0B
0C
0D
0E
0F
0G
0H
0I
0J
0K
0L
0M
0N
0O
0P
0Q
0R
0S
0T
0U
0V
0W
0X
0Y
0Z
0[
0\
0]
0^
0_
0`
0a
0b
0c
1d
0g
0f
0e
$end
#5000
1"
1A
1B
0/
#10000
0"
0A
0B
1/
#15000
1"
1A
1B
0/
#20000
0"
0A
0B
1/
#25000
1"
1A
1B
0/
#30000
0"
0A
0B
1/
#34400
b1 !
1D
0/
1G
1E
#35000
1"
1A
1B
1/
1F
1H
0G
1Q
1O
19
1+
#40000
0"
0A
0B
0/
#43000
b0 !
0D
1/
0E
#45000
1"
1A
1B
0/
1R
1P
0F
0H
1[
1Y
09
0+
1Z
#50000
0"
0A
0B
1/
#55000
1"
1A
1B
0/
1g
16
1.
1c
1b
1a
1^
1?
1>
1=
1:
1%
1&
1'
1*
#60000
0"
0A
0B
1/
#65000
1"
1A
1B
0/
#70000
0"
0A
0B
1/
#75000
1"
1A
1B
0/
#77400
b1 !
1D
1/
1G
1E
#80000
0"
0A
0B
0/
#85000
1"
1A
1B
1/
1F
1H
0G
1S
0Q
19
1+
#86000
b0 !
0D
0/
0E
#90000
0"
0A
0B
1/
#95000
1"
1A
1B
0/
1T
0R
0F
0H
0Y
1]
1\
09
0+
0]
0Z
#100000
0"
0A
0B
1/
#105000
1"
1A
1B
0/
1f
0g
17
06
1-
0.
0d
0b
0a
1`
0^
0@
0>
0=
1<
0:
0$
0&
0'
1(
0*
#110000
0"
0A
0B
1/
#115000
1"
1A
1B
0/
#120000
0"
0A
0B
1/
#120400
b1 !
1D
0/
1G
1E
#125000
1"
1A
1B
1/
1F
1H
0G
1U
0S
19
1+
#129000
b0 !
0D
0/
0E
#130000
0"
0A
0B
1/
#135000
1"
1A
1B
0/
1V
0T
0F
0H
1Y
09
0+
1Z
#140000
0"
0A
0B
1/
#145000
1"
1A
1B
0/
1g
16
1.
1b
0`
1>
0<
1&
0(
#150000
0"
0A
0B
1/
#155000
1"
1A
1B
0/
#160000
0"
0A
0B
1/
#163400
b1 !
1D
0/
1G
1E
#165000
1"
1A
1B
1/
1F
1H
0G
1W
0U
19
1+
#170000
0"
0A
0B
0/
#172000
b0 !
0D
1/
0E
#175000
1"
1A
1B
0/
1X
0V
0F
0H
0[
0Z
1]
09
0+
0\
#180000
0"
0A
0B
1/
#185000
1"
1A
1B
0/
1e
0f
0g
18
07
06
1,
0-
0.
0c
1a
1^
0?
1=
1:
0%
1'
1*
#190000
0"
0A
0B
1/
#195000
1"
1A
1B
0/
#200000
0"
0A
0B
1/
#205000
1"
1A
1B
0/
#206400
b1 !
1D
1/
1G
1E
#210000
0"
0A
0B
0/
#215000
b0 !
1"
0D
1A
1B
1/
0G
0E
1F
1H
0W
1I
19
1+
#220000
0"
0A
0B
0/
#225000
1"
1A
1B
1/
0X
1J
0F
0H
1Z
09
0+
#230000
0"
0A
0B
0/
#235000
1"
1A
1B
1/
1g
16
1.
0a
1_
0^
0=
1;
0:
0'
1)
0*
#240000
0"
0A
0B
0/
#245000
1"
1A
1B
1/
#249400
b1 !
1D
0/
1G
1E
#250000
0"
0A
0B
1/
#255000
1"
1A
1B
0/
1F
1H
0G
1K
0I
19
1+
#258000
b0 !
0D
1/
0E
#260000
0"
0A
0B
0/
#265000
1"
1A
1B
1/
1L
0J
0F
0H
0Z
1[
09
0+
1\
#270000
0"
0A
0B
0/
#275000
1"
1A
1B
1/
1f
0g
17
06
1-
0.
0b
0>
0&
#280000
0"
0A
0B
0/
#285000
1"
1A
1B
1/
#290000
0"
0A
0B
0/
#292400
b1 !
1D
1/
1G
1E
#295000
1"
1A
1B
0/
1F
1H
0G
1M
0K
19
1+
#300000
0"
0A
0B
1/
#301000
b0 !
0D
0/
0E
#305000
1"
1A
1B
1/
1N
0L
0F
0H
1Z
09
0+
#310000
0"
0A
0B
0/
#315000
1"
1A
1B
1/
1g
16
1.
1d
1c
1b
1a
0_
1@
1?
1>
1=
0;
1$
1%
1&
1'
0)
#320000
0"
0A
0B
0/
#325000
1"
1A
1B
1/
#330000
0"
0A
0B
0/
#335000
1"
1A
1B
1/
#335400
b1 !
1D
0/
1G
1E
#340000
0"
0A
0B
1/
#344000
b0 !
0D
0/
0G
0E
#345000
1"
1A
1B
1/
#350000
0"
0A
0B
0/
#355000
1"
1A
1B
1/
#360000
0"
0A
0B
0/
#365000
1"
1A
1B
1/
#370000
0"
0A
0B
0/
#375000
1"
1A
1B
1/
#378400
b1 !
1D
0/
1G
1E
#380000
0"
0A
0B
1/
#385000
1"
1A
1B
0/
1F
1H
0G
0O
0M
19
1+
#387000
b0 !
0D
1/
0E
#390000
0"
0A
0B
0/
#395000
1"
1A
1B
1/
0P
0N
0F
0H
0[
0Y
09
0+
0\
0]
0Z
#400000
0"
0A
0B
0/
#405000
1"
1A
1B
1/
0e
0f
0g
08
07
06
0,
0-
0.
0c
0b
0a
0?
0>
0=
0%
0&
0'
#410000
0"
0A
0B
0/
#415000
1"
1A
1B
1/
#420000
0"
0A
0B
0/
#421400
b1 !
1D
1/
1G
1E
#425000
1"
1A
1B
0/
1F
1H
0G
1Q
1O
19
1+
#430000
b0 !
0"
0D
0A
0B
1/
0E
#435000
1"
1A
1B
0/
1R
1P
0F
0H
1[
1Y
09
0+
1Z
#440000
0"
0A
0B
1/
#445000
1"
1A
1B
0/
1g
16
1.
1c
1b
1a
1^
1?
1>
1=
1:
1%
1&
1'
1*
#450000
0"
0A
0B
1/
#455000
1"
1A
1B
0/
#460000
0"
0A
0B
1/
#464400
b1 !
1D
0/
1G
1E
#465000
1"
1A
1B
1/
1F
1H
0G
1S
0Q
19
1+
#470000
0"
0A
0B
0/
#473000
b0 !
0D
1/
0E
#475000
1"
1A
1B
0/
1T
0R
0F
0H
0Y
1]
1\
09
0+
0]
0Z
#480000
0"
0A
0B
1/
#485000
1"
1A
1B
0/
1f
0g
17
06
1-
0.
0d
0b
0a
1`
0^
0@
0>
0=
1<
0:
0$
0&
0'
1(
0*
#490000
0"
0A
0B
1/
#495000
1"
1A
1B
0/
#500000
0"
0A
0B
1/
#505000
1"
1A
1B
0/
#507400
b1 !
1D
1/
1G
1E
#510000
0"
0A
0B
0/
#515000
1"
1A
1B
1/
1F
1H
0G
1U
0S
19
1+
#516000
b0 !
0D
0/
0E
#520000
0"
0A
0B
1/
#525000
1"
1A
1B
0/
1V
0T
0F
0H
1Y
09
0+
1Z
#530000
0"
0A
0B
1/
#535000
1"
1A
1B
0/
1g
16
1.
1b
0`
1>
0<
1&
0(
#540000
0"
0A
0B
1/
#545000
1"
1A
1B
0/
#550000
0"
0A
0B
1/
#550400
b1 !
1D
0/
1G
1E
#555000
1"
1A
1B
1/
1F
1H
0G
1W
0U
19
1+
#559000
b0 !
0D
0/
0E
#560000
0"
0A
0B
1/
#565000
1"
1A
1B
0/
1X
0V
0F
0H
0[
0Z
1]
09
0+
0\
#570000
0"
0A
0B
1/
#575000
1"
1A
1B
0/
1e
0f
0g
18
07
06
1,
0-
0.
0c
1a
1^
0?
1=
1:
0%
1'
1*
#580000
0"
0A
0B
1/
#585000
1"
1A
1B
0/
#590000
0"
0A
0B
1/
#593400
b1 !
1D
0/
1G
1E
#595000
1"
1A
1B
1/
1F
1H
0G
0W
1I
19
1+
#600000
0"
0A
0B
0/
#602000
b0 !
0D
1/
0E
#605000
1"
1A
1B
0/
0X
1J
0F
0H
1Z
09
0+
#610000
0"
0A
0B
1/
#615000
1"
1A
1B
0/
1g
16
1.
0a
1_
0^
0=
1;
0:
0'
1)
0*
#620000
0"
0A
0B
1/
#625000
1"
1A
1B
0/
#630000
0"
0A
0B
1/
#635000
1"
1A
1B
0/
#636400
b1 !
1D
1/
1G
1E
#640000
0"
0A
0B
0/
#645000
b0 !
1"
0D
1A
1B
1/
0G
0E
1F
1H
1K
0I
19
1+
#650000
0"
0A
0B
0/
#655000
1"
1A
1B
1/
1L
0J
0F
0H
0Z
1[
09
0+
1\
#660000
0"
0A
0B
0/
#665000
1"
1A
1B
1/
1f
0g
17
06
1-
0.
0b
0>
0&
#670000
0"
0A
0B
0/
#675000
1"
1A
1B
1/
#679400
b1 !
1D
0/
1G
1E
#680000
0"
0A
0B
1/
#685000
1"
1A
1B
0/
1F
1H
0G
1M
0K
19
1+
#688000
b0 !
0D
1/
0E
#690000
0"
0A
0B
0/
#695000
1"
1A
1B
1/
1N
0L
0F
0H
1Z
09
0+
#700000
0"
0A
0B
0/
#705000
1"
1A
1B
1/
1g
16
1.
1d
1c
1b
1a
0_
1@
1?
1>
1=
0;
1$
1%
1&
1'
0)
#710000
0"
0A
0B
0/
#715000
1"
1A
1B
1/
#720000
0"
0A
0B
0/
#722400
b1 !
1D
1/
1G
1E
#725000
1"
1A
1B
0/
1F
1H
0G
0O
0M
19
1+
#730000
0"
0A
0B
1/
#731000
b0 !
0D
0/
0E
#735000
1"
1A
1B
1/
0P
0N
0F
0H
0[
0Y
09
0+
0\
0]
0Z
#740000
0"
0A
0B
0/
#745000
1"
1A
1B
1/
0e
0f
0g
08
07
06
0,
0-
0.
0c
0b
0a
0?
0>
0=
0%
0&
0'
#750000
0"
0A
0B
0/
#755000
1"
1A
1B
1/
#760000
0"
0A
0B
0/
#765000
1"
1A
1B
1/
#765400
b1 !
1D
0/
1G
1E
#770000
0"
0A
0B
1/
#774000
b0 !
0D
0/
0G
0E
#775000
1"
1A
1B
1/
#780000
0"
0A
0B
0/
#785000
1"
1A
1B
1/
#790000
0"
0A
0B
0/
#795000
1"
1A
1B
1/
#800000
0"
0A
0B
0/
#805000
1"
1A
1B
1/
#808400
b1 !
1D
0/
1G
1E
#810000
0"
0A
0B
1/
#815000
1"
1A
1B
0/
1F
1H
0G
1Q
1O
19
1+
#817000
b0 !
0D
1/
0E
#820000
0"
0A
0B
0/
#825000
1"
1A
1B
1/
1R
1P
0F
0H
1[
1Y
09
0+
1Z
#830000
0"
0A
0B
0/
#835000
1"
1A
1B
1/
1g
16
1.
1c
1b
1a
1^
1?
1>
1=
1:
1%
1&
1'
1*
#840000
0"
0A
0B
0/
#845000
1"
1A
1B
1/
#850000
0"
0A
0B
0/
#851400
b1 !
1D
1/
1G
1E
#855000
1"
1A
1B
0/
1F
1H
0G
1S
0Q
19
1+
#860000
b0 !
0"
0D
0A
0B
1/
0E
#865000
1"
1A
1B
0/
1T
0R
0F
0H
0Y
1]
1\
09
0+
0]
0Z
#870000
0"
0A
0B
1/
#875000
1"
1A
1B
0/
1f
0g
17
06
1-
0.
0d
0b
0a
1`
0^
0@
0>
0=
1<
0:
0$
0&
0'
1(
0*
#880000
0"
0A
0B
1/
#885000
1"
1A
1B
0/
#890000
0"
0A
0B
1/
#894400
b1 !
1D
0/
1G
1E
#895000
1"
1A
1B
1/
1F
1H
0G
1U
0S
19
1+
#900000
0"
0A
0B
0/
#903000
b0 !
0D
1/
0E
#905000
1"
1A
1B
0/
1V
0T
0F
0H
1Y
09
0+
1Z
#910000
0"
0A
0B
1/
#915000
1"
1A
1B
0/
1g
16
1.
1b
0`
1>
0<
1&
0(
#920000
0"
0A
0B
1/
#925000
1"
1A
1B
0/
#930000
0"
0A
0B
1/
#935000
1"
1A
1B
0/
#937400
b1 !
1D
1/
1G
1E
#940000
0"
0A
0B
0/
#945000
1"
1A
1B
1/
1F
1H
0G
1W
0U
19
1+
#946000
b0 !
0D
0/
0E
#950000
0"
0A
0B
1/
#955000
1"
1A
1B
0/
1X
0V
0F
0H
0[
0Z
1]
09
0+
0\
#960000
0"
0A
0B
1/
#965000
1"
1A
1B
0/
1e
0f
0g
18
07
06
1,
0-
0.
0c
1a
1^
0?
1=
1:
0%
1'
1*
#970000
0"
0A
0B
1/
#975000
1"
1A
1B
0/
#980000
0"
0A
0B
1/
#980400
b1 !
1D
0/
1G
1E
#985000
1"
1A
1B
1/
1F
1H
0G
0W
1I
19
1+
#989000
b0 !
0D
0/
0E
#990000
0"
0A
0B
1/
#995000
1"
1A
1B
0/
0X
1J
0F
0H
1Z
09
0+
