Lab3/simulation/qsim/lab3.msim.vcd
$comment
	File created using the following command:
		vcd file lab3.msim.vcd -direction
$end
$date
	Thu Jan 19 16:40:17 2023
$end
$version
	ModelSim Version 10.1d
$end
$timescale
	1ps
$end
$scope module lab3_vlg_vec_tst $end
$var reg 1 ! BUTTON [0:0] $end
$var reg 1 " CLOCK_50_2 $end
$var reg 1 # SW [0:0] $end
$var wire 1 $ pobe_reg [2] $end
$var wire 1 % pobe_reg [1] $end
$var wire 1 & pobe_reg [0] $end
$var wire 1 ' sampler $end
$scope module i1 $end
$var wire 1 ( gnd $end
$var wire 1 ) vcc $end
$var wire 1 * unknown $end
$var tri1 1 + devclrn $end
$var tri1 1 , devpor $end
$var tri1 1 - devoe $end
$var wire 1 . CLOCK_50_2~input_o $end
$var wire 1 / SW[0]~input_o $end
$var wire 1 0 BUTTON[0]~input_o $end
$var wire 1 1 pobe_reg[0]~output_o $end
$var wire 1 2 pobe_reg[1]~output_o $end
$var wire 1 3 pobe_reg[2]~output_o $end
$upscope $end
$upscope $end
$enddefinitions $end
#0
$dumpvars
b0 !
0"
b0 #
0&
0%
0$
x'
0(
1)
x*
1+
1,
1-
0.
0/
00
01
02
03
$end
#2000
1"
1.
0'
#4000
0"
0.
1'
#6000
1"
1.
0'
#6500
b1 !
10
1'
#8000
0"
0.
0'
#10000
1"
1.
1'
#12000
0"
0.
0'
#13000
b0 !
00
1'
#14000
1"
1.
0'
#16000
0"
0.
1'
#18000
1"
1.
0'
#19500
b1 !
10
1'
#20000
0"
0.
0'
#22000
1"
1.
1'
#24000
0"
0.
0'
#26000
b0 !
1"
00
1.
1'
#28000
0"
0.
0'
#30000
1"
1.
1'
#32000
0"
0.
0'
#32500
b1 !
10
1'
#34000
1"
1.
0'
#36000
0"
0.
1'
#38000
1"
1.
0'
#39000
b0 !
00
1'
#40000
0"
0.
0'
#42000
1"
1.
1'
#44000
0"
0.
0'
#45500
b1 !
10
1'
#46000
1"
1.
0'
#48000
0"
0.
1'
#50000
1"
1.
0'
#52000
b0 !
0"
00
0.
1'
#54000
1"
1.
0'
#56000
0"
0.
1'
#58000
1"
1.
0'
#58500
b1 !
10
1'
#60000
0"
0.
0'
#62000
1"
1.
1'
#64000
0"
0.
0'
#65000
b0 !
00
1'
#66000
1"
1.
0'
#68000
0"
0.
1'
#70000
1"
1.
0'
#71500
b1 !
10
1'
#72000
0"
0.
0'
#74000
1"
1.
1'
#76000
0"
0.
0'
#78000
b0 !
1"
00
1.
1'
#80000
0"
0.
0'
#82000
1"
1.
1'
#84000
0"
0.
0'
#84500
b1 !
10
1'
#86000
1"
1.
0'
#88000
0"
0.
1'
#90000
1"
1.
0'
#91000
b0 !
00
1'
#92000
0"
0.
0'
#94000
1"
1.
1'
#96000
0"
0.
0'
#97500
b1 !
10
1'
#98000
1"
1.
0'
#100000
0"
0.
1'
#102000
1"
1.
0'
#104000
b0 !
0"
00
0.
1'
#106000
1"
1.
0'
#108000
0"
0.
1'
#110000
1"
1.
0'
#110500
b1 !
10
1'
#112000
0"
0.
0'
#114000
1"
1.
1'
#116000
0"
0.
0'
#117000
b0 !
00
1'
#118000
1"
1.
0'
#120000
0"
0.
1'
#122000
1"
1.
0'
#123500
b1 !
10
1'
#124000
0"
0.
0'
#126000
1"
1.
1'
#128000
0"
0.
0'
#130000
b0 !
1"
00
1.
1'
#132000
0"
0.
0'
#134000
1"
1.
1'
#136000
0"
0.
0'
#136500
b1 !
10
1'
#138000
1"
1.
0'
#140000
0"
0.
1'
#142000
1"
1.
0'
#143000
b0 !
00
1'
#144000
0"
0.
0'
#146000
1"
1.
1'
#148000
0"
0.
0'
#149500
b1 !
10
1'
#150000
1"
1.
0'
#152000
0"
0.
1'
#154000
1"
1.
0'
#156000
b0 !
0"
00
0.
1'
#158000
1"
1.
0'
#160000
0"
0.
1'
#162000
1"
1.
0'
#162500
b1 !
10
1'
#164000
0"
0.
0'
#166000
1"
1.
1'
#168000
0"
0.
0'
#169000
b0 !
00
1'
#170000
1"
1.
0'
#172000
0"
0.
1'
#174000
1"
1.
0'
#175500
b1 !
10
1'
#176000
0"
0.
0'
#178000
1"
1.
1'
#180000
0"
0.
0'
#182000
b0 !
1"
00
1.
1'
#184000
0"
0.
0'
#186000
1"
1.
1'
#188000
0"
0.
0'
#188500
b1 !
10
1'
#190000
1"
1.
0'
#192000
0"
0.
1'
#194000
1"
1.
0'
#195000
b0 !
00
1'
#196000
0"
0.
0'
#198000
1"
1.
1'
#200000
0"
0.
0'
#201500
b1 !
10
1'
#202000
1"
1.
0'
#204000
0"
0.
1'
#206000
1"
1.
0'
#208000
b0 !
0"
00
0.
1'
#210000
1"
1.
0'
#212000
0"
0.
1'
#214000
1"
1.
0'
#214500
b1 !
10
1'
#216000
0"
0.
0'
#218000
1"
1.
1'
#220000
0"
0.
0'
#221000
b0 !
00
1'
#222000
1"
1.
0'
#224000
0"
0.
1'
#226000
1"
1.
0'
#227500
b1 !
10
1'
#228000
0"
0.
0'
#230000
1"
1.
1'
#232000
0"
0.
0'
#234000
b0 !
1"
00
1.
1'
#236000
0"
0.
0'
#238000
1"
1.
1'
#240000
0"
0.
0'
#240500
b1 !
10
1'
#242000
1"
1.
0'
#244000
0"
0.
1'
#246000
1"
1.
0'
#247000
b0 !
00
1'
#248000
0"
0.
0'
#250000
1"
1.
1'
#252000
0"
0.
0'
#253500
b1 !
10
1'
#254000
1"
1.
0'
#256000
0"
0.
1'
#258000
1"
1.
0'
#260000
b0 !
0"
00
0.
1'
#262000
1"
1.
0'
#264000
0"
0.
1'
#266000
1"
1.
0'
#266500
b1 !
10
1'
#268000
0"
0.
0'
#270000
1"
1.
1'
#272000
0"
0.
0'
#273000
b0 !
00
1'
#274000
1"
1.
0'
#276000
0"
0.
1'
#278000
1"
1.
0'
#279500
b1 !
10
1'
#280000
0"
0.
0'
#282000
1"
1.
1'
#284000
0"
0.
0'
#286000
b0 !
1"
00
1.
1'
#288000
0"
0.
0'
#290000
1"
1.
1'
#292000
0"
0.
0'
#292500
b1 !
10
1'
#294000
1"
1.
0'
#296000
0"
0.
1'
#298000
1"
1.
0'
#299000
b0 !
00
1'
#300000
0"
0.
0'
#302000
1"
1.
1'
#304000
0"
0.
0'
#305500
b1 !
10
1'
#306000
1"
1.
0'
#308000
0"
0.
1'
#310000
1"
1.
0'
#312000
b0 !
0"
00
0.
1'
#314000
1"
1.
0'
#316000
0"
0.
1'
#318000
1"
1.
0'
#318500
b1 !
10
1'
#320000
0"
0.
0'
#322000
1"
1.
1'
#324000
0"
0.
0'
#325000
b0 !
00
1'
#326000
1"
1.
0'
#328000
0"
0.
1'
#330000
1"
1.
0'
#331500
b1 !
10
1'
#332000
0"
0.
0'
#334000
1"
1.
1'
#336000
0"
0.
0'
#338000
b0 !
1"
00
1.
1'
#340000
0"
0.
0'
#342000
1"
1.
1'
#344000
0"
0.
0'
#344500
b1 !
10
1'
#346000
1"
1.
0'
#348000
0"
0.
1'
#350000
1"
1.
0'
#351000
b0 !
00
1'
#352000
0"
0.
0'
#354000
1"
1.
1'
#356000
0"
0.
0'
#357500
b1 !
10
1'
#358000
1"
1.
0'
#360000
0"
0.
1'
#362000
1"
1.
0'
#364000
b0 !
0"
00
0.
1'
#366000
1"
1.
0'
#368000
0"
0.
1'
#370000
1"
1.
0'
#370500
b1 !
10
1'
#372000
0"
0.
0'
#374000
1"
1.
1'
#376000
0"
0.
0'
#377000
b0 !
00
1'
#378000
1"
1.
0'
#380000
0"
0.
1'
#382000
1"
1.
0'
#383500
b1 !
10
1'
#384000
0"
0.
0'
#386000
1"
1.
1'
#388000
0"
0.
0'
#390000
b0 !
1"
00
1.
1'
#392000
0"
0.
0'
#394000
1"
1.
1'
#396000
0"
0.
0'
#396500
b1 !
10
1'
#398000
1"
1.
0'
#400000
0"
0.
1'
#402000
1"
1.
0'
#403000
b0 !
00
1'
#404000
0"
0.
0'
#406000
1"
1.
1'
#408000
0"
0.
0'
#409500
b1 !
10
1'
#410000
1"
1.
0'
#412000
0"
0.
1'
#414000
1"
1.
0'
#416000
b0 !
0"
00
0.
1'
#418000
1"
1.
0'
#420000
0"
0.
1'
#422000
1"
1.
0'
#422500
b1 !
10
1'
#424000
0"
0.
0'
#426000
1"
1.
1'
#428000
0"
0.
0'
#429000
b0 !
00
1'
#430000
1"
1.
0'
#432000
0"
0.
1'
#434000
1"
1.
0'
#435500
b1 !
10
1'
#436000
0"
0.
0'
#438000
1"
1.
1'
#440000
0"
0.
0'
#442000
b0 !
1"
00
1.
1'
#444000
0"
0.
0'
#446000
1"
1.
1'
#448000
0"
0.
0'
#448500
b1 !
10
1'
#450000
1"
1.
0'
#452000
0"
0.
1'
#454000
1"
1.
0'
#455000
b0 !
00
1'
#456000
0"
0.
0'
#458000
1"
1.
1'
#460000
0"
0.
0'
#461500
b1 !
10
1'
#462000
1"
1.
0'
#464000
0"
0.
1'
#466000
1"
1.
0'
#468000
b0 !
0"
00
0.
1'
#470000
1"
1.
0'
#472000
0"
0.
1'
#474000
1"
1.
0'
#474500
b1 !
10
1'
#476000
0"
0.
0'
#478000
1"
1.
1'
#480000
0"
0.
0'
#481000
b0 !
00
1'
#482000
1"
1.
0'
#484000
0"
0.
1'
#486000
1"
1.
0'
#487500
b1 !
10
1'
#488000
0"
0.
0'
#490000
1"
1.
1'
#492000
0"
0.
0'
#494000
b0 !
1"
00
1.
1'
#496000
0"
0.
0'
#498000
1"
1.
1'
#500000
0"
0.
0'
#500500
b1 !
10
1'
#502000
1"
1.
0'
#504000
0"
0.
1'
#506000
1"
1.
0'
#507000
b0 !
00
1'
#508000
0"
0.
0'
#510000
1"
1.
1'
#512000
0"
0.
0'
#513500
b1 !
10
1'
#514000
1"
1.
0'
#516000
0"
0.
1'
#518000
1"
1.
0'
#520000
b0 !
0"
00
0.
1'
#522000
1"
1.
0'
#524000
0"
0.
1'
#526000
1"
1.
0'
#526500
b1 !
10
1'
#528000
0"
0.
0'
#530000
1"
1.
1'
#532000
0"
0.
0'
#533000
b0 !
00
1'
#534000
1"
1.
0'
#536000
0"
0.
1'
#538000
1"
1.
0'
#539500
b1 !
10
1'
#540000
0"
0.
0'
#542000
1"
1.
1'
#544000
0"
0.
0'
#546000
b0 !
1"
00
1.
1'
#548000
0"
0.
0'
#550000
1"
1.
1'
#552000
0"
0.
0'
#552500
b1 !
10
1'
#554000
1"
1.
0'
#556000
0"
0.
1'
#558000
1"
1.
0'
#559000
b0 !
00
1'
#560000
0"
0.
0'
#562000
1"
1.
1'
#564000
0"
0.
0'
#565500
b1 !
10
1'
#566000
1"
1.
0'
#568000
0"
0.
1'
#570000
1"
1.
0'
#572000
b0 !
0"
00
0.
1'
#574000
1"
1.
0'
#576000
0"
0.
1'
#578000
1"
1.
0'
#578500
b1 !
10
1'
#580000
0"
0.
0'
#582000
1"
1.
1'
#584000
0"
0.
0'
#585000
b0 !
00
1'
#586000
1"
1.
0'
#588000
0"
0.
1'
#590000
1"
1.
0'
#591500
b1 !
10
1'
#592000
0"
0.
0'
#594000
1"
1.
1'
#596000
0"
0.
0'
#598000
b0 !
1"
00
1.
1'
#600000
0"
0.
0'
#602000
1"
1.
1'
#604000
0"
0.
0'
#604500
b1 !
10
1'
#606000
1"
1.
0'
#608000
0"
0.
1'
#610000
1"
1.
0'
#611000
b0 !
00
1'
#612000
0"
0.
0'
#614000
1"
1.
1'
#616000
0"
0.
0'
#617500
b1 !
10
1'
#618000
1"
1.
0'
#620000
0"
0.
1'
#622000
1"
1.
0'
#624000
b0 !
0"
00
0.
1'
#626000
1"
1.
0'
#628000
0"
0.
1'
#630000
1"
1.
0'
#630500
b1 !
10
1'
#632000
0"
0.
0'
#634000
1"
1.
1'
#636000
0"
0.
0'
#637000
b0 !
00
1'
#638000
1"
1.
0'
#640000
0"
0.
1'
#642000
1"
1.
0'
#643500
b1 !
10
1'
#644000
0"
0.
0'
#646000
1"
1.
1'
#648000
0"
0.
0'
#650000
b0 !
1"
00
1.
1'
#652000
0"
0.
0'
#654000
1"
1.
1'
#656000
0"
0.
0'
#656500
b1 !
10
1'
#658000
1"
1.
0'
#660000
0"
0.
1'
#662000
1"
1.
0'
#663000
b0 !
00
1'
#664000
0"
0.
0'
#666000
1"
1.
1'
#668000
0"
0.
0'
#669500
b1 !
10
1'
#670000
1"
1.
0'
#672000
0"
0.
1'
#674000
1"
1.
0'
#676000
b0 !
0"
00
0.
1'
#678000
1"
1.
0'
#680000
0"
0.
1'
#682000
1"
1.
0'
#682500
b1 !
10
1'
#684000
0"
0.
0'
#686000
1"
1.
1'
#688000
0"
0.
0'
#689000
b0 !
00
1'
#690000
1"
1.
0'
#692000
0"
0.
1'
#694000
1"
1.
0'
#695500
b1 !
10
1'
#696000
0"
0.
0'
#698000
1"
1.
1'
#700000
0"
0.
0'
#702000
b0 !
1"
00
1.
1'
#704000
0"
0.
0'
#706000
1"
1.
1'
#708000
0"
0.
0'
#708500
b1 !
10
1'
#710000
1"
1.
0'
#712000
0"
0.
1'
#714000
1"
1.
0'
#715000
b0 !
00
1'
#716000
0"
0.
0'
#718000
1"
1.
1'
#720000
0"
0.
0'
#721500
b1 !
10
1'
#722000
1"
1.
0'
#724000
0"
0.
1'
#726000
1"
1.
0'
#728000
b0 !
0"
00
0.
1'
#730000
1"
1.
0'
#732000
0"
0.
1'
#734000
1"
1.
0'
#734500
b1 !
10
1'
#736000
0"
0.
0'
#738000
1"
1.
1'
#740000
0"
0.
0'
#741000
b0 !
00
1'
#742000
1"
1.
0'
#744000
0"
0.
1'
#746000
1"
1.
0'
#747500
b1 !
10
1'
#748000
0"
0.
0'
#750000
1"
1.
1'
#752000
0"
0.
0'
#754000
b0 !
1"
00
1.
1'
#756000
0"
0.
0'
#758000
1"
1.
1'
#760000
0"
0.
0'
#760500
b1 !
10
1'
#762000
1"
1.
0'
#764000
0"
0.
1'
#766000
1"
1.
0'
#767000
b0 !
00
1'
#768000
0"
0.
0'
#770000
1"
1.
1'
#772000
0"
0.
0'
#773500
b1 !
10
1'
#774000
1"
1.
0'
#776000
0"
0.
1'
#778000
1"
1.
0'
#780000
b0 !
0"
00
0.
1'
#782000
1"
1.
0'
#784000
0"
0.
1'
#786000
1"
1.
0'
#786500
b1 !
10
1'
#788000
0"
0.
0'
#790000
1"
1.
1'
#792000
0"
0.
0'
#793000
b0 !
00
1'
#794000
1"
1.
0'
#796000
0"
0.
1'
#798000
1"
1.
0'
#799500
b1 !
10
1'
#800000
0"
0.
0'
#802000
1"
1.
1'
#804000
0"
0.
0'
#806000
b0 !
1"
00
1.
1'
#808000
0"
0.
0'
#810000
1"
1.
1'
#812000
0"
0.
0'
#812500
b1 !
10
1'
#814000
1"
1.
0'
#816000
0"
0.
1'
#818000
1"
1.
0'
#819000
b0 !
00
1'
#820000
0"
0.
0'
#822000
1"
1.
1'
#824000
0"
0.
0'
#825500
b1 !
10
1'
#826000
1"
1.
0'
#828000
0"
0.
1'
#830000
1"
1.
0'
#832000
b0 !
0"
00
0.
1'
#834000
1"
1.
0'
#836000
0"
0.
1'
#838000
1"
1.
0'
#838500
b1 !
10
1'
#840000
0"
0.
0'
#842000
1"
1.
1'
#844000
0"
0.
0'
#845000
b0 !
00
1'
#846000
1"
1.
0'
#848000
0"
0.
1'
#850000
1"
1.
0'
#851500
b1 !
10
1'
#852000
0"
0.
0'
#854000
1"
1.
1'
#856000
0"
0.
0'
#858000
b0 !
1"
00
1.
1'
#860000
0"
0.
0'
#862000
1"
1.
1'
#864000
0"
0.
0'
#864500
b1 !
10
1'
#866000
1"
1.
0'
#868000
0"
0.
1'
#870000
1"
1.
0'
#871000
b0 !
00
1'
#872000
0"
0.
0'
#874000
1"
1.
1'
#876000
0"
0.
0'
#877500
b1 !
10
1'
#878000
1"
1.
0'
#880000
0"
0.
1'
#882000
1"
1.
0'
#884000
b0 !
0"
00
0.
1'
#886000
1"
1.
0'
#888000
0"
0.
1'
#890000
1"
1.
0'
#890500
b1 !
10
1'
#892000
0"
0.
0'
#894000
1"
1.
1'
#896000
0"
0.
0'
#897000
b0 !
00
1'
#898000
1"
1.
0'
#900000
0"
0.
1'
#902000
1"
1.
0'
#903500
b1 !
10
1'
#904000
0"
0.
0'
#906000
1"
1.
1'
#908000
0"
0.
0'
#910000
b0 !
1"
00
1.
1'
#912000
0"
0.
0'
#914000
1"
1.
1'
#916000
0"
0.
0'
#916500
b1 !
10
1'
#918000
1"
1.
0'
#920000
0"
0.
1'
#922000
1"
1.
0'
#923000
b0 !
00
1'
#924000
0"
0.
0'
#926000
1"
1.
1'
#928000
0"
0.
0'
#929500
b1 !
10
1'
#930000
1"
1.
0'
#932000
0"
0.
1'
#934000
1"
1.
0'
#936000
b0 !
0"
00
0.
1'
#938000
1"
1.
0'
#940000
0"
0.
1'
#942000
1"
1.
0'
#942500
b1 !
10
1'
#944000
0"
0.
0'
#946000
1"
1.
1'
#948000
0"
0.
0'
#949000
b0 !
00
1'
#950000
1"
1.
0'
#952000
0"
0.
1'
#954000
1"
1.
0'
#955500
b1 !
10
1'
#956000
0"
0.
0'
#958000
1"
1.
1'
#960000
0"
0.
0'
#962000
b0 !
1"
00
1.
1'
#964000
0"
0.
0'
#966000
1"
1.
1'
#968000
0"
0.
0'
#968500
b1 !
10
1'
#970000
1"
1.
0'
#972000
0"
0.
1'
#974000
1"
1.
0'
#975000
b0 !
00
1'
#976000
0"
0.
0'
#978000
1"
1.
1'
#980000
0"
0.
0'
#981500
b1 !
10
1'
#982000
1"
1.
0'
#984000
0"
0.
1'
#986000
1"
1.
0'
#988000
b0 !
0"
00
0.
1'
#990000
1"
1.
0'
#992000
0"
0.
1'
#994000
1"
1.
0'
#994500
b1 !
10
1'
#996000
0"
0.
0'
#998000
1"
1.
1'
