Lab7/simulation/qsim/lab7.msim.vcd
$comment
	File created using the following command:
		vcd file lab7.msim.vcd -direction
$end
$date
	Thu Jan 26 16:11:02 2023
$end
$version
	ModelSim Version 10.1d
$end
$timescale
	1ps
$end
$scope module lab7_vlg_vec_tst $end
$var reg 10 ! BUTTON [9:0] $end
$var reg 1 " CLOCK_50_2 $end
$var reg 10 # SW [9:0] $end
$var wire 1 $ Alarm_flag $end
$var wire 1 % FSM_flag [1] $end
$var wire 1 & FSM_flag [0] $end
$var wire 1 ' LEDG [9] $end
$var wire 1 ( LEDG [8] $end
$var wire 1 ) LEDG [7] $end
$var wire 1 * LEDG [6] $end
$var wire 1 + LEDG [5] $end
$var wire 1 , LEDG [4] $end
$var wire 1 - LEDG [3] $end
$var wire 1 . LEDG [2] $end
$var wire 1 / LEDG [1] $end
$var wire 1 0 LEDG [0] $end
$var wire 1 1 min [8] $end
$var wire 1 2 min [7] $end
$var wire 1 3 min [6] $end
$var wire 1 4 min [5] $end
$var wire 1 5 min [4] $end
$var wire 1 6 min [3] $end
$var wire 1 7 min [2] $end
$var wire 1 8 min [1] $end
$var wire 1 9 min [0] $end
$var wire 1 : presclaerFlag $end
$var wire 1 ; sec [8] $end
$var wire 1 < sec [7] $end
$var wire 1 = sec [6] $end
$var wire 1 > sec [5] $end
$var wire 1 ? sec [4] $end
$var wire 1 @ sec [3] $end
$var wire 1 A sec [2] $end
$var wire 1 B sec [1] $end
$var wire 1 C sec [0] $end
$var wire 1 D smallSec [8] $end
$var wire 1 E smallSec [7] $end
$var wire 1 F smallSec [6] $end
$var wire 1 G smallSec [5] $end
$var wire 1 H smallSec [4] $end
$var wire 1 I smallSec [3] $end
$var wire 1 J smallSec [2] $end
$var wire 1 K smallSec [1] $end
$var wire 1 L smallSec [0] $end
$var wire 1 M sampler $end
$scope module i1 $end
$var wire 1 N gnd $end
$var wire 1 O vcc $end
$var wire 1 P unknown $end
$var tri1 1 Q devclrn $end
$var tri1 1 R devpor $end
$var tri1 1 S devoe $end
$var wire 1 T SW[0]~input_o $end
$var wire 1 U SW[1]~input_o $end
$var wire 1 V SW[2]~input_o $end
$var wire 1 W SW[3]~input_o $end
$var wire 1 X SW[4]~input_o $end
$var wire 1 Y SW[5]~input_o $end
$var wire 1 Z SW[6]~input_o $end
$var wire 1 [ SW[7]~input_o $end
$var wire 1 \ BUTTON[0]~input_o $end
$var wire 1 ] BUTTON[3]~input_o $end
$var wire 1 ^ BUTTON[4]~input_o $end
$var wire 1 _ BUTTON[5]~input_o $end
$var wire 1 ` BUTTON[6]~input_o $end
$var wire 1 a BUTTON[7]~input_o $end
$var wire 1 b BUTTON[8]~input_o $end
$var wire 1 c BUTTON[9]~input_o $end
$var wire 1 d presclaerFlag~output_o $end
$var wire 1 e FSM_flag[0]~output_o $end
$var wire 1 f FSM_flag[1]~output_o $end
$var wire 1 g Alarm_flag~output_o $end
$var wire 1 h smallSec[0]~output_o $end
$var wire 1 i smallSec[1]~output_o $end
$var wire 1 j smallSec[2]~output_o $end
$var wire 1 k smallSec[3]~output_o $end
$var wire 1 l smallSec[4]~output_o $end
$var wire 1 m smallSec[5]~output_o $end
$var wire 1 n smallSec[6]~output_o $end
$var wire 1 o smallSec[7]~output_o $end
$var wire 1 p smallSec[8]~output_o $end
$var wire 1 q sec[0]~output_o $end
$var wire 1 r sec[1]~output_o $end
$var wire 1 s sec[2]~output_o $end
$var wire 1 t sec[3]~output_o $end
$var wire 1 u sec[4]~output_o $end
$var wire 1 v sec[5]~output_o $end
$var wire 1 w sec[6]~output_o $end
$var wire 1 x sec[7]~output_o $end
$var wire 1 y sec[8]~output_o $end
$var wire 1 z min[0]~output_o $end
$var wire 1 { min[1]~output_o $end
$var wire 1 | min[2]~output_o $end
$var wire 1 } min[3]~output_o $end
$var wire 1 ~ min[4]~output_o $end
$var wire 1 !! min[5]~output_o $end
$var wire 1 "! min[6]~output_o $end
$var wire 1 #! min[7]~output_o $end
$var wire 1 $! min[8]~output_o $end
$var wire 1 %! LEDG[0]~output_o $end
$var wire 1 &! LEDG[1]~output_o $end
$var wire 1 '! LEDG[2]~output_o $end
$var wire 1 (! LEDG[3]~output_o $end
$var wire 1 )! LEDG[4]~output_o $end
$var wire 1 *! LEDG[5]~output_o $end
$var wire 1 +! LEDG[6]~output_o $end
$var wire 1 ,! LEDG[7]~output_o $end
$var wire 1 -! LEDG[8]~output_o $end
$var wire 1 .! LEDG[9]~output_o $end
$var wire 1 /! CLOCK_50_2~input_o $end
$var wire 1 0! CLOCK_50_2~inputclkctrl_outclk $end
$var wire 1 1! SW[9]~input_o $end
$var wire 1 2! i_presclaer|cnt[0]~32_combout $end
$var wire 1 3! i_presclaer|cnt[1]~36_combout $end
$var wire 1 4! i_presclaer|cnt[0]~33 $end
$var wire 1 5! i_presclaer|cnt[1]~34_combout $end
$var wire 1 6! i_presclaer|cnt[1]~35 $end
$var wire 1 7! i_presclaer|cnt[2]~37_combout $end
$var wire 1 8! i_presclaer|cnt[2]~38 $end
$var wire 1 9! i_presclaer|cnt[3]~39_combout $end
$var wire 1 :! i_presclaer|cnt[3]~40 $end
$var wire 1 ;! i_presclaer|cnt[4]~41_combout $end
$var wire 1 <! i_presclaer|cnt[4]~42 $end
$var wire 1 =! i_presclaer|cnt[5]~43_combout $end
$var wire 1 >! i_presclaer|cnt[5]~44 $end
$var wire 1 ?! i_presclaer|cnt[6]~45_combout $end
$var wire 1 @! i_presclaer|cnt[6]~46 $end
$var wire 1 A! i_presclaer|cnt[7]~47_combout $end
$var wire 1 B! i_presclaer|cnt[7]~48 $end
$var wire 1 C! i_presclaer|cnt[8]~49_combout $end
$var wire 1 D! i_presclaer|cnt[8]~50 $end
$var wire 1 E! i_presclaer|cnt[9]~51_combout $end
$var wire 1 F! i_presclaer|cnt[9]~52 $end
$var wire 1 G! i_presclaer|cnt[10]~53_combout $end
$var wire 1 H! i_presclaer|cnt[10]~54 $end
$var wire 1 I! i_presclaer|cnt[11]~55_combout $end
$var wire 1 J! i_presclaer|cnt[11]~56 $end
$var wire 1 K! i_presclaer|cnt[12]~57_combout $end
$var wire 1 L! i_presclaer|cnt[12]~58 $end
$var wire 1 M! i_presclaer|cnt[13]~59_combout $end
$var wire 1 N! i_presclaer|cnt[13]~60 $end
$var wire 1 O! i_presclaer|cnt[14]~61_combout $end
$var wire 1 P! i_presclaer|cnt[14]~62 $end
$var wire 1 Q! i_presclaer|cnt[15]~63_combout $end
$var wire 1 R! i_presclaer|cnt[15]~64 $end
$var wire 1 S! i_presclaer|cnt[16]~65_combout $end
$var wire 1 T! i_presclaer|cnt[16]~66 $end
$var wire 1 U! i_presclaer|cnt[17]~67_combout $end
$var wire 1 V! i_presclaer|cnt[17]~68 $end
$var wire 1 W! i_presclaer|cnt[18]~69_combout $end
$var wire 1 X! i_presclaer|cnt[18]~70 $end
$var wire 1 Y! i_presclaer|cnt[19]~71_combout $end
$var wire 1 Z! i_presclaer|cnt[19]~72 $end
$var wire 1 [! i_presclaer|cnt[20]~73_combout $end
$var wire 1 \! i_presclaer|cnt[20]~74 $end
$var wire 1 ]! i_presclaer|cnt[21]~75_combout $end
$var wire 1 ^! i_presclaer|cnt[21]~76 $end
$var wire 1 _! i_presclaer|cnt[22]~77_combout $end
$var wire 1 `! i_presclaer|cnt[22]~78 $end
$var wire 1 a! i_presclaer|cnt[23]~79_combout $end
$var wire 1 b! i_presclaer|cnt[23]~80 $end
$var wire 1 c! i_presclaer|cnt[24]~81_combout $end
$var wire 1 d! i_presclaer|LessThan1~6_combout $end
$var wire 1 e! i_presclaer|LessThan1~5_combout $end
$var wire 1 f! i_presclaer|cnt[24]~82 $end
$var wire 1 g! i_presclaer|cnt[25]~83_combout $end
$var wire 1 h! i_presclaer|cnt[25]~84 $end
$var wire 1 i! i_presclaer|cnt[26]~85_combout $end
$var wire 1 j! i_presclaer|cnt[26]~86 $end
$var wire 1 k! i_presclaer|cnt[27]~87_combout $end
$var wire 1 l! i_presclaer|cnt[27]~88 $end
$var wire 1 m! i_presclaer|cnt[28]~89_combout $end
$var wire 1 n! i_presclaer|cnt[28]~90 $end
$var wire 1 o! i_presclaer|cnt[29]~91_combout $end
$var wire 1 p! i_presclaer|cnt[29]~92 $end
$var wire 1 q! i_presclaer|cnt[30]~93_combout $end
$var wire 1 r! i_presclaer|cnt[30]~94 $end
$var wire 1 s! i_presclaer|cnt[31]~95_combout $end
$var wire 1 t! i_presclaer|LessThan1~7_combout $end
$var wire 1 u! i_presclaer|LessThan1~8_combout $end
$var wire 1 v! i_presclaer|LessThan1~1_combout $end
$var wire 1 w! i_presclaer|LessThan1~2_combout $end
$var wire 1 x! i_presclaer|LessThan1~3_combout $end
$var wire 1 y! i_presclaer|LessThan1~0_combout $end
$var wire 1 z! i_presclaer|LessThan1~4_combout $end
$var wire 1 {! i_presclaer|LessThan1~9_combout $end
$var wire 1 |! i_presclaer|presclaerFlag~0_combout $end
$var wire 1 }! i_presclaer|presclaerFlag~q $end
$var wire 1 ~! SW[8]~input_o $end
$var wire 1 !" FSM_flag~0_combout $end
$var wire 1 "" FSM_flag[0]~2_combout $end
$var wire 1 #" FSM_flag[1]~reg0_q $end
$var wire 1 $" sec~2_combout $end
$var wire 1 %" smallSec[0]~9_combout $end
$var wire 1 &" smallSec[0]~reg0_q $end
$var wire 1 '" smallSec[0]~10 $end
$var wire 1 (" smallSec[1]~11_combout $end
$var wire 1 )" smallSec[1]~reg0_q $end
$var wire 1 *" smallSec[1]~12 $end
$var wire 1 +" smallSec[2]~13_combout $end
$var wire 1 ," smallSec[2]~reg0_q $end
$var wire 1 -" smallSec[2]~14 $end
$var wire 1 ." smallSec[3]~15_combout $end
$var wire 1 /" smallSec[3]~reg0_q $end
$var wire 1 0" smallSec[3]~16 $end
$var wire 1 1" smallSec[4]~17_combout $end
$var wire 1 2" smallSec[4]~reg0_q $end
$var wire 1 3" smallSec[4]~18 $end
$var wire 1 4" smallSec[5]~19_combout $end
$var wire 1 5" smallSec[5]~reg0_q $end
$var wire 1 6" smallSec[5]~20 $end
$var wire 1 7" smallSec[6]~21_combout $end
$var wire 1 8" smallSec[6]~reg0_q $end
$var wire 1 9" smallSec[6]~22 $end
$var wire 1 :" smallSec[7]~23_combout $end
$var wire 1 ;" smallSec[7]~reg0_q $end
$var wire 1 <" smallSec[7]~24 $end
$var wire 1 =" smallSec[8]~25_combout $end
$var wire 1 >" smallSec[8]~reg0_q $end
$var wire 1 ?" LessThan2~1_combout $end
$var wire 1 @" LessThan2~0_combout $end
$var wire 1 A" LessThan2~2_combout $end
$var wire 1 B" BUTTON[1]~input_o $end
$var wire 1 C" sec[0]~0_combout $end
$var wire 1 D" sec[0]~1_combout $end
$var wire 1 E" Add3~0_combout $end
$var wire 1 F" Add3~2_combout $end
$var wire 1 G" sec[0]~reg0_q $end
$var wire 1 H" Add3~1 $end
$var wire 1 I" Add3~3_combout $end
$var wire 1 J" Add3~5_combout $end
$var wire 1 K" sec[1]~reg0_q $end
$var wire 1 L" Add3~4 $end
$var wire 1 M" Add3~7 $end
$var wire 1 N" Add3~9_combout $end
$var wire 1 O" Add3~11_combout $end
$var wire 1 P" sec[3]~reg0_q $end
$var wire 1 Q" Add3~10 $end
$var wire 1 R" Add3~12_combout $end
$var wire 1 S" Add3~14_combout $end
$var wire 1 T" sec[4]~reg0_q $end
$var wire 1 U" Add3~13 $end
$var wire 1 V" Add3~15_combout $end
$var wire 1 W" Add3~17_combout $end
$var wire 1 X" sec[5]~reg0_q $end
$var wire 1 Y" Add3~16 $end
$var wire 1 Z" Add3~18_combout $end
$var wire 1 [" sec[6]~3_combout $end
$var wire 1 \" sec[6]~reg0_q $end
$var wire 1 ]" Add3~19 $end
$var wire 1 ^" Add3~20_combout $end
$var wire 1 _" sec[7]~4_combout $end
$var wire 1 `" sec[7]~reg0_q $end
$var wire 1 a" Add3~21 $end
$var wire 1 b" Add3~22_combout $end
$var wire 1 c" sec[8]~5_combout $end
$var wire 1 d" sec[8]~reg0_q $end
$var wire 1 e" LessThan3~0_combout $end
$var wire 1 f" LessThan3~1_combout $end
$var wire 1 g" Add3~6_combout $end
$var wire 1 h" Add3~8_combout $end
$var wire 1 i" sec[2]~reg0_q $end
$var wire 1 j" set_sec[0]~9_combout $end
$var wire 1 k" set_sec[2]~15 $end
$var wire 1 l" set_sec[3]~16_combout $end
$var wire 1 m" set_sec[8]~13_combout $end
$var wire 1 n" set_sec[3]~17 $end
$var wire 1 o" set_sec[4]~18_combout $end
$var wire 1 p" set_sec[4]~19 $end
$var wire 1 q" set_sec[5]~20_combout $end
$var wire 1 r" LessThan1~0_combout $end
$var wire 1 s" set_sec[5]~21 $end
$var wire 1 t" set_sec[6]~22_combout $end
$var wire 1 u" set_sec[6]~23 $end
$var wire 1 v" set_sec[7]~24_combout $end
$var wire 1 w" set_sec[7]~25 $end
$var wire 1 x" set_sec[8]~26_combout $end
$var wire 1 y" LessThan1~1_combout $end
$var wire 1 z" set_sec[0]~10 $end
$var wire 1 {" set_sec[1]~11_combout $end
$var wire 1 |" set_sec[1]~12 $end
$var wire 1 }" set_sec[2]~14_combout $end
$var wire 1 ~" always1~1_combout $end
$var wire 1 !# always1~3_combout $end
$var wire 1 "# always1~0_combout $end
$var wire 1 ## always1~2_combout $end
$var wire 1 $# always1~4_combout $end
$var wire 1 %# set_min[0]~9_combout $end
$var wire 1 &# set_min[4]~18 $end
$var wire 1 '# set_min[5]~19_combout $end
$var wire 1 (# BUTTON[2]~input_o $end
$var wire 1 )# set_min[8]~27_combout $end
$var wire 1 *# set_min[5]~20 $end
$var wire 1 +# set_min[6]~21_combout $end
$var wire 1 ,# LessThan0~0_combout $end
$var wire 1 -# set_min[6]~22 $end
$var wire 1 .# set_min[7]~23_combout $end
$var wire 1 /# set_min[7]~24 $end
$var wire 1 0# set_min[8]~25_combout $end
$var wire 1 1# LessThan0~1_combout $end
$var wire 1 2# set_min[0]~10 $end
$var wire 1 3# set_min[1]~11_combout $end
$var wire 1 4# set_min[1]~12 $end
$var wire 1 5# set_min[2]~13_combout $end
$var wire 1 6# set_min[2]~14 $end
$var wire 1 7# set_min[3]~15_combout $end
$var wire 1 8# set_min[3]~16 $end
$var wire 1 9# set_min[4]~17_combout $end
$var wire 1 :# min[0]~0_combout $end
$var wire 1 ;# min[0]~1_combout $end
$var wire 1 <# Add4~0_combout $end
$var wire 1 =# Add4~2_combout $end
$var wire 1 ># min[0]~reg0_q $end
$var wire 1 ?# Add4~1 $end
$var wire 1 @# Add4~3_combout $end
$var wire 1 A# Add4~5_combout $end
$var wire 1 B# min[1]~reg0_q $end
$var wire 1 C# Add4~4 $end
$var wire 1 D# Add4~6_combout $end
$var wire 1 E# Add4~8_combout $end
$var wire 1 F# min[2]~reg0_q $end
$var wire 1 G# Add4~7 $end
$var wire 1 H# Add4~9_combout $end
$var wire 1 I# Add4~11_combout $end
$var wire 1 J# min[3]~reg0_q $end
$var wire 1 K# Add4~10 $end
$var wire 1 L# Add4~13 $end
$var wire 1 M# Add4~15_combout $end
$var wire 1 N# Add4~17_combout $end
$var wire 1 O# min[5]~reg0_q $end
$var wire 1 P# Add4~16 $end
$var wire 1 Q# Add4~18_combout $end
$var wire 1 R# min~2_combout $end
$var wire 1 S# min[6]~3_combout $end
$var wire 1 T# min[6]~reg0_q $end
$var wire 1 U# Add4~19 $end
$var wire 1 V# Add4~20_combout $end
$var wire 1 W# min[7]~4_combout $end
$var wire 1 X# min[7]~reg0_q $end
$var wire 1 Y# Add4~21 $end
$var wire 1 Z# Add4~22_combout $end
$var wire 1 [# min[8]~5_combout $end
$var wire 1 \# min[8]~reg0_q $end
$var wire 1 ]# LessThan4~0_combout $end
$var wire 1 ^# LessThan4~1_combout $end
$var wire 1 _# Add4~12_combout $end
$var wire 1 `# Add4~14_combout $end
$var wire 1 a# min[4]~reg0_q $end
$var wire 1 b# always1~8_combout $end
$var wire 1 c# always1~7_combout $end
$var wire 1 d# always1~6_combout $end
$var wire 1 e# always1~9_combout $end
$var wire 1 f# always1~10_combout $end
$var wire 1 g# always1~5_combout $end
$var wire 1 h# always1~11_combout $end
$var wire 1 i# Alarm_flag~reg0_q $end
$var wire 1 j# FSM_flag[0]~1_combout $end
$var wire 1 k# FSM_flag[0]~reg0_q $end
$var wire 1 l# set_min [8] $end
$var wire 1 m# set_min [7] $end
$var wire 1 n# set_min [6] $end
$var wire 1 o# set_min [5] $end
$var wire 1 p# set_min [4] $end
$var wire 1 q# set_min [3] $end
$var wire 1 r# set_min [2] $end
$var wire 1 s# set_min [1] $end
$var wire 1 t# set_min [0] $end
$var wire 1 u# set_sec [8] $end
$var wire 1 v# set_sec [7] $end
$var wire 1 w# set_sec [6] $end
$var wire 1 x# set_sec [5] $end
$var wire 1 y# set_sec [4] $end
$var wire 1 z# set_sec [3] $end
$var wire 1 {# set_sec [2] $end
$var wire 1 |# set_sec [1] $end
$var wire 1 }# set_sec [0] $end
$var wire 1 ~# i_presclaer|cnt [31] $end
$var wire 1 !$ i_presclaer|cnt [30] $end
$var wire 1 "$ i_presclaer|cnt [29] $end
$var wire 1 #$ i_presclaer|cnt [28] $end
$var wire 1 $$ i_presclaer|cnt [27] $end
$var wire 1 %$ i_presclaer|cnt [26] $end
$var wire 1 &$ i_presclaer|cnt [25] $end
$var wire 1 '$ i_presclaer|cnt [24] $end
$var wire 1 ($ i_presclaer|cnt [23] $end
$var wire 1 )$ i_presclaer|cnt [22] $end
$var wire 1 *$ i_presclaer|cnt [21] $end
$var wire 1 +$ i_presclaer|cnt [20] $end
$var wire 1 ,$ i_presclaer|cnt [19] $end
$var wire 1 -$ i_presclaer|cnt [18] $end
$var wire 1 .$ i_presclaer|cnt [17] $end
$var wire 1 /$ i_presclaer|cnt [16] $end
$var wire 1 0$ i_presclaer|cnt [15] $end
$var wire 1 1$ i_presclaer|cnt [14] $end
$var wire 1 2$ i_presclaer|cnt [13] $end
$var wire 1 3$ i_presclaer|cnt [12] $end
$var wire 1 4$ i_presclaer|cnt [11] $end
$var wire 1 5$ i_presclaer|cnt [10] $end
$var wire 1 6$ i_presclaer|cnt [9] $end
$var wire 1 7$ i_presclaer|cnt [8] $end
$var wire 1 8$ i_presclaer|cnt [7] $end
$var wire 1 9$ i_presclaer|cnt [6] $end
$var wire 1 :$ i_presclaer|cnt [5] $end
$var wire 1 ;$ i_presclaer|cnt [4] $end
$var wire 1 <$ i_presclaer|cnt [3] $end
$var wire 1 =$ i_presclaer|cnt [2] $end
$var wire 1 >$ i_presclaer|cnt [1] $end
$var wire 1 ?$ i_presclaer|cnt [0] $end
$upscope $end
$upscope $end
$enddefinitions $end
#0
$dumpvars
b0 !
0"
b100000000 #
0$
0&
0%
00
0/
0.
0-
0,
0+
0*
0)
0(
0'
09
08
07
06
05
04
03
02
01
0:
0C
0B
0A
0@
0?
0>
0=
0<
0;
0L
0K
0J
0I
0H
0G
0F
0E
0D
xM
0N
1O
xP
1Q
1R
1S
0T
0U
0V
0W
0X
0Y
0Z
0[
0\
0]
0^
0_
0`
0a
0b
0c
0d
0e
0f
0g
0h
0i
0j
0k
0l
0m
0n
0o
0p
0q
0r
0s
0t
0u
0v
0w
0x
0y
0z
0{
0|
0}
0~
0!!
0"!
0#!
0$!
0%!
0&!
0'!
0(!
0)!
0*!
0+!
0,!
0-!
0.!
0/!
00!
01!
12!
03!
04!
05!
16!
07!
08!
09!
1:!
0;!
0<!
0=!
1>!
0?!
0@!
0A!
1B!
0C!
0D!
0E!
1F!
0G!
0H!
0I!
1J!
0K!
0L!
0M!
1N!
0O!
0P!
0Q!
1R!
0S!
0T!
0U!
1V!
0W!
0X!
0Y!
1Z!
0[!
0\!
0]!
1^!
0_!
0`!
0a!
1b!
0c!
0d!
0e!
0f!
0g!
1h!
0i!
0j!
0k!
1l!
0m!
0n!
0o!
1p!
0q!
0r!
0s!
0t!
0u!
0v!
0w!
0x!
0y!
0z!
0{!
0|!
0}!
1~!
1!"
0""
0#"
1$"
0%"
0&"
0'"
0("
0)"
1*"
0+"
0,"
0-"
0."
0/"
10"
01"
02"
03"
04"
05"
16"
07"
08"
09"
0:"
0;"
1<"
0="
0>"
1?"
1@"
1A"
0B"
1C"
1D"
1E"
1F"
0G"
0H"
0I"
0J"
0K"
1L"
0M"
0N"
0O"
0P"
1Q"
0R"
0S"
0T"
0U"
0V"
0W"
0X"
1Y"
0Z"
0["
0\"
0]"
0^"
0_"
0`"
1a"
0b"
0c"
0d"
1e"
1f"
0g"
0h"
0i"
1j"
0k"
0l"
0m"
1n"
0o"
0p"
0q"
1r"
1s"
0t"
0u"
0v"
1w"
0x"
0y"
0z"
0{"
1|"
0}"
1~"
1!#
1"#
1##
1$#
1%#
0&#
0'#
0(#
0)#
1*#
0+#
1,#
0-#
0.#
1/#
00#
01#
02#
03#
14#
05#
06#
07#
18#
09#
1:#
1;#
1<#
1=#
0>#
0?#
0@#
0A#
0B#
1C#
0D#
0E#
0F#
0G#
0H#
0I#
0J#
1K#
0L#
0M#
0N#
0O#
1P#
0Q#
1R#
0S#
0T#
0U#
0V#
0W#
0X#
1Y#
0Z#
0[#
0\#
1]#
1^#
0_#
0`#
0a#
1b#
1c#
1d#
1e#
1f#
1g#
1h#
0i#
1j#
0k#
0t#
0s#
0r#
0q#
0p#
0o#
0n#
0m#
0l#
0}#
0|#
0{#
0z#
0y#
0x#
0w#
0v#
0u#
0?$
0>$
0=$
0<$
0;$
0:$
09$
08$
07$
06$
05$
04$
03$
02$
01$
00$
0/$
0.$
0-$
0,$
0+$
0*$
0)$
0($
0'$
0&$
0%$
0$$
0#$
0"$
0!$
0~#
$end
#500
1"
1/!
10!
0M
1?$
1k#
1i#
14!
02!
1e
1g
1&
1$
15!
#1000
0"
0/!
00!
1M
#1500
1"
1/!
10!
0M
1>$
0?$
1y!
06!
05!
04!
12!
1z!
17!
16!
15!
1{!
07!
1|!
13!
#2000
0"
0/!
00!
1M
#2500
b100 !
b110 !
1"
1B"
1(#
1/!
10!
0M
1m"
1)#
0>$
1}!
0y!
05!
1%"
1d
1:
0z!
0{!
0|!
03!
#3000
0"
0/!
00!
1M
#3500
1"
1/!
10!
0M
1t#
1}#
1?$
0}!
0d#
12#
0%#
0"#
1z"
0j"
14!
02!
0%"
0d
0:
0f#
13#
0$#
1{"
15!
0h#
#4000
0"
0/!
00!
1M
#4500
1"
1/!
10!
0M
1s#
0t#
1|#
0}#
1>$
0?$
0i#
0c#
04#
03#
1d#
02#
1%#
0|"
0{"
0z"
1j"
1y!
06!
05!
04!
12!
0g
0$
15#
14#
13#
1}"
1|"
1{"
1z!
17!
16!
15!
05#
0}"
1{!
07!
1|!
13!
#5000
b10 !
b0 !
0"
0B"
0(#
0/!
00!
1M
0m"
0)#
#5500
1"
1/!
10!
0M
0>$
1}!
0y!
05!
1%"
1d
1:
0z!
0{!
0|!
03!
#6000
0"
0/!
00!
1M
#6500
1"
1/!
10!
0M
1?$
0}!
14!
02!
0%"
0d
0:
15!
#7000
0"
0/!
00!
1M
#7500
b100 !
b110 !
1"
1B"
1(#
1/!
10!
0M
1m"
1)#
1>$
0?$
1y!
06!
05!
04!
12!
1z!
17!
16!
15!
1{!
07!
1|!
13!
#8000
0"
0/!
00!
1M
#8500
1"
1/!
10!
0M
1t#
1}#
0>$
1}!
0d#
12#
0%#
1z"
0j"
0y!
05!
1%"
1d
1:
04#
03#
0|"
0{"
0z!
15#
1}"
0{!
0|!
03!
#9000
0"
0/!
00!
1M
#9500
1"
1/!
10!
0M
1r#
0s#
0t#
1{#
0|#
0}#
1?$
0}!
16#
05#
14#
13#
1d#
02#
1%#
0~"
1k"
0}"
1"#
1|"
1{"
0z"
1j"
14!
02!
0%"
0d
0:
17#
06#
15#
03#
1l"
0k"
1}"
0{"
15!
07#
0l"
#10000
b10 !
b0 !
0"
0B"
0(#
0/!
00!
1M
0m"
0)#
#10500
1"
1/!
10!
0M
1>$
0?$
1y!
06!
05!
04!
12!
1z!
17!
16!
15!
1{!
07!
1|!
13!
#11000
0"
0/!
00!
1M
#11500
1"
1/!
10!
0M
0>$
1}!
0y!
05!
1%"
1d
1:
0z!
0{!
0|!
03!
#12000
0"
0/!
00!
1M
#12500
b100 !
b110 !
1"
1B"
1(#
1/!
10!
0M
1m"
1)#
1?$
0}!
14!
02!
0%"
0d
0:
15!
#13000
0"
0/!
00!
1M
#13500
1"
1/!
10!
0M
1t#
1}#
1>$
0?$
0d#
12#
0%#
0"#
1z"
0j"
1y!
06!
05!
04!
12!
13#
1{"
1z!
17!
16!
15!
1{!
07!
1|!
13!
#14000
0"
0/!
00!
1M
#14500
1"
1/!
10!
0M
1s#
0t#
1|#
0}#
0>$
1}!
04#
03#
1d#
02#
1%#
0|"
0{"
0z"
1j"
0y!
05!
1%"
1d
1:
16#
05#
14#
13#
1k"
0}"
1|"
1{"
0z!
17#
06#
15#
1l"
0k"
1}"
0{!
07#
0l"
0|!
03!
#15000
b10 !
b0 !
0"
0B"
0(#
0/!
00!
1M
0m"
0)#
#15500
1"
1/!
10!
0M
1?$
0}!
14!
02!
0%"
0d
0:
15!
#16000
0"
0/!
00!
1M
#16500
1"
1/!
10!
0M
1>$
0?$
1y!
06!
05!
04!
12!
1z!
17!
16!
15!
1{!
07!
1|!
13!
#17000
0"
0/!
00!
1M
#17500
b100 !
b110 !
1"
1B"
1(#
1/!
10!
0M
1m"
1)#
0>$
1}!
0y!
05!
1%"
1d
1:
0z!
0{!
0|!
03!
#18000
0"
0/!
00!
1M
#18500
1"
1/!
10!
0M
1t#
1}#
1?$
0}!
0d#
12#
0%#
1z"
0j"
14!
02!
0%"
0d
0:
04#
03#
0|"
0{"
15!
16#
05#
1k"
0}"
17#
1l"
#19000
0"
0/!
00!
1M
#19500
1"
1/!
10!
0M
1q#
0r#
0s#
0t#
0{#
0|#
0}#
1z#
1>$
0?$
0b#
08#
07#
1c#
06#
15#
14#
13#
1d#
02#
1%#
0k"
1}"
1"#
1|"
1{"
0z"
1j"
0n"
0l"
1y!
06!
05!
04!
12!
19#
18#
17#
05#
03#
1n"
1l"
0}"
0{"
1o"
1z!
17!
16!
15!
09#
0o"
1{!
07!
1|!
13!
#20000
b10 !
b0 !
0"
0B"
0(#
0/!
00!
1M
0m"
0)#
#20500
1"
1/!
10!
0M
0>$
1}!
0y!
05!
1%"
1d
1:
0z!
0{!
0|!
03!
#21000
0"
0/!
00!
1M
#21500
1"
1/!
10!
0M
1?$
0}!
14!
02!
0%"
0d
0:
15!
#22000
0"
0/!
00!
1M
#22500
b100 !
b110 !
1"
1B"
1(#
1/!
10!
0M
1m"
1)#
1>$
0?$
1y!
06!
05!
04!
12!
1z!
17!
16!
15!
1{!
07!
1|!
13!
#23000
0"
0/!
00!
1M
#23500
1"
1/!
10!
0M
1t#
1}#
0>$
1}!
0d#
12#
0%#
0"#
1z"
0j"
0y!
05!
1%"
1d
1:
13#
1{"
0z!
0{!
0|!
03!
#24000
0"
0/!
00!
1M
#24500
1"
1/!
10!
0M
1s#
0t#
1|#
0}#
1?$
0}!
0c#
04#
03#
1d#
02#
1%#
0|"
0{"
0z"
1j"
14!
02!
0%"
0d
0:
15#
14#
13#
1}"
1|"
1{"
15!
05#
0}"
#25000
b10 !
b0 !
0"
0B"
0(#
0/!
00!
1M
0m"
0)#
#25500
1"
1/!
10!
0M
1>$
0?$
1y!
06!
05!
04!
12!
1z!
17!
16!
15!
1{!
07!
1|!
13!
#26000
0"
0/!
00!
1M
#26500
1"
1/!
10!
0M
0>$
1}!
0y!
05!
1%"
1d
1:
0z!
0{!
0|!
03!
#27000
0"
0/!
00!
1M
#27500
b100 !
b110 !
1"
1B"
1(#
1/!
10!
0M
1m"
1)#
1?$
0}!
14!
02!
0%"
0d
0:
15!
#28000
0"
0/!
00!
1M
#28500
1"
1/!
10!
0M
1t#
1}#
1>$
0?$
0d#
12#
0%#
1z"
0j"
1y!
06!
05!
04!
12!
04#
03#
0|"
0{"
1z!
17!
16!
15!
15#
1}"
1{!
07!
1|!
13!
#29000
0"
0/!
00!
1M
#29500
1"
1/!
10!
0M
1r#
0s#
0t#
1{#
0|#
0}#
0>$
1}!
16#
05#
14#
13#
1d#
02#
1%#
1k"
0}"
1"#
1|"
1{"
0z"
1j"
0y!
05!
1%"
1d
1:
08#
07#
06#
15#
03#
0n"
0l"
0k"
1}"
0{"
0z!
19#
18#
17#
1o"
1n"
1l"
0{!
09#
0o"
0|!
03!
#30000
b10 !
b0 !
0"
0B"
0(#
0/!
00!
1M
0m"
0)#
#30500
1"
1/!
10!
0M
1?$
0}!
14!
02!
0%"
0d
0:
15!
#31000
0"
0/!
00!
1M
#31500
1"
1/!
10!
0M
1>$
0?$
1y!
06!
05!
04!
12!
1z!
17!
16!
15!
1{!
07!
1|!
13!
#32000
0"
0/!
00!
1M
#32500
b100 !
b110 !
1"
1B"
1(#
1/!
10!
0M
1m"
1)#
0>$
1}!
0y!
05!
1%"
1d
1:
0z!
0{!
0|!
03!
#33000
0"
0/!
00!
1M
#33500
1"
1/!
10!
0M
1t#
1}#
1?$
0}!
0d#
12#
0%#
0"#
1z"
0j"
14!
02!
0%"
0d
0:
13#
1{"
15!
#34000
0"
0/!
00!
1M
#34500
1"
1/!
10!
0M
1s#
0t#
1|#
0}#
1>$
0?$
04#
03#
1d#
02#
1%#
0|"
0{"
0z"
1j"
1y!
06!
05!
04!
12!
16#
05#
14#
13#
1k"
0}"
1|"
1{"
1z!
17!
16!
15!
08#
07#
06#
15#
0n"
0l"
0k"
1}"
1{!
07!
19#
18#
17#
1o"
1n"
1l"
1|!
13!
09#
0o"
