Lab6/simulation/qsim/lab6.msim.vcd
$comment
	File created using the following command:
		vcd file lab6.msim.vcd -direction
$end
$date
	Thu Jan 26 13:43:40 2023
$end
$version
	ModelSim Version 10.1d
$end
$timescale
	1ps
$end
$scope module lab6_vlg_vec_tst $end
$var reg 1 ! CLOCK_50_2 $end
$var reg 10 " SW [9:0] $end
$var wire 1 # LEDG [9] $end
$var wire 1 $ LEDG [8] $end
$var wire 1 % LEDG [7] $end
$var wire 1 & LEDG [6] $end
$var wire 1 ' LEDG [5] $end
$var wire 1 ( LEDG [4] $end
$var wire 1 ) LEDG [3] $end
$var wire 1 * LEDG [2] $end
$var wire 1 + LEDG [1] $end
$var wire 1 , LEDG [0] $end
$var wire 1 - cnt [31] $end
$var wire 1 . cnt [30] $end
$var wire 1 / cnt [29] $end
$var wire 1 0 cnt [28] $end
$var wire 1 1 cnt [27] $end
$var wire 1 2 cnt [26] $end
$var wire 1 3 cnt [25] $end
$var wire 1 4 cnt [24] $end
$var wire 1 5 cnt [23] $end
$var wire 1 6 cnt [22] $end
$var wire 1 7 cnt [21] $end
$var wire 1 8 cnt [20] $end
$var wire 1 9 cnt [19] $end
$var wire 1 : cnt [18] $end
$var wire 1 ; cnt [17] $end
$var wire 1 < cnt [16] $end
$var wire 1 = cnt [15] $end
$var wire 1 > cnt [14] $end
$var wire 1 ? cnt [13] $end
$var wire 1 @ cnt [12] $end
$var wire 1 A cnt [11] $end
$var wire 1 B cnt [10] $end
$var wire 1 C cnt [9] $end
$var wire 1 D cnt [8] $end
$var wire 1 E cnt [7] $end
$var wire 1 F cnt [6] $end
$var wire 1 G cnt [5] $end
$var wire 1 H cnt [4] $end
$var wire 1 I cnt [3] $end
$var wire 1 J cnt [2] $end
$var wire 1 K cnt [1] $end
$var wire 1 L cnt [0] $end
$var wire 1 M preCLK $end
$var wire 1 N presclaerFlag $end
$var wire 1 O sampler $end
$scope module i1 $end
$var wire 1 P gnd $end
$var wire 1 Q vcc $end
$var wire 1 R unknown $end
$var tri1 1 S devclrn $end
$var tri1 1 T devpor $end
$var tri1 1 U devoe $end
$var wire 1 V SW[1]~input_o $end
$var wire 1 W SW[2]~input_o $end
$var wire 1 X SW[3]~input_o $end
$var wire 1 Y SW[4]~input_o $end
$var wire 1 Z SW[5]~input_o $end
$var wire 1 [ SW[6]~input_o $end
$var wire 1 \ SW[7]~input_o $end
$var wire 1 ] SW[8]~input_o $end
$var wire 1 ^ cnt[0]~output_o $end
$var wire 1 _ cnt[1]~output_o $end
$var wire 1 ` cnt[2]~output_o $end
$var wire 1 a cnt[3]~output_o $end
$var wire 1 b cnt[4]~output_o $end
$var wire 1 c cnt[5]~output_o $end
$var wire 1 d cnt[6]~output_o $end
$var wire 1 e cnt[7]~output_o $end
$var wire 1 f cnt[8]~output_o $end
$var wire 1 g cnt[9]~output_o $end
$var wire 1 h cnt[10]~output_o $end
$var wire 1 i cnt[11]~output_o $end
$var wire 1 j cnt[12]~output_o $end
$var wire 1 k cnt[13]~output_o $end
$var wire 1 l cnt[14]~output_o $end
$var wire 1 m cnt[15]~output_o $end
$var wire 1 n cnt[16]~output_o $end
$var wire 1 o cnt[17]~output_o $end
$var wire 1 p cnt[18]~output_o $end
$var wire 1 q cnt[19]~output_o $end
$var wire 1 r cnt[20]~output_o $end
$var wire 1 s cnt[21]~output_o $end
$var wire 1 t cnt[22]~output_o $end
$var wire 1 u cnt[23]~output_o $end
$var wire 1 v cnt[24]~output_o $end
$var wire 1 w cnt[25]~output_o $end
$var wire 1 x cnt[26]~output_o $end
$var wire 1 y cnt[27]~output_o $end
$var wire 1 z cnt[28]~output_o $end
$var wire 1 { cnt[29]~output_o $end
$var wire 1 | cnt[30]~output_o $end
$var wire 1 } cnt[31]~output_o $end
$var wire 1 ~ presclaerFlag~output_o $end
$var wire 1 !! preCLK~output_o $end
$var wire 1 "! LEDG[0]~output_o $end
$var wire 1 #! LEDG[1]~output_o $end
$var wire 1 $! LEDG[2]~output_o $end
$var wire 1 %! LEDG[3]~output_o $end
$var wire 1 &! LEDG[4]~output_o $end
$var wire 1 '! LEDG[5]~output_o $end
$var wire 1 (! LEDG[6]~output_o $end
$var wire 1 )! LEDG[7]~output_o $end
$var wire 1 *! LEDG[8]~output_o $end
$var wire 1 +! LEDG[9]~output_o $end
$var wire 1 ,! CLOCK_50_2~input_o $end
$var wire 1 -! CLOCK_50_2~inputclkctrl_outclk $end
$var wire 1 .! i_presclaer|cnt[0]~32_combout $end
$var wire 1 /! SW[9]~input_o $end
$var wire 1 0! i_presclaer|cnt[0]~33 $end
$var wire 1 1! i_presclaer|cnt[1]~35_combout $end
$var wire 1 2! i_presclaer|cnt[1]~36 $end
$var wire 1 3! i_presclaer|cnt[2]~37_combout $end
$var wire 1 4! i_presclaer|cnt[2]~38 $end
$var wire 1 5! i_presclaer|cnt[3]~39_combout $end
$var wire 1 6! i_presclaer|cnt[3]~40 $end
$var wire 1 7! i_presclaer|cnt[4]~41_combout $end
$var wire 1 8! i_presclaer|cnt[4]~42 $end
$var wire 1 9! i_presclaer|cnt[5]~43_combout $end
$var wire 1 :! i_presclaer|cnt[5]~44 $end
$var wire 1 ;! i_presclaer|cnt[6]~45_combout $end
$var wire 1 <! i_presclaer|cnt[6]~46 $end
$var wire 1 =! i_presclaer|cnt[7]~47_combout $end
$var wire 1 >! i_presclaer|cnt[7]~48 $end
$var wire 1 ?! i_presclaer|cnt[8]~49_combout $end
$var wire 1 @! i_presclaer|cnt[8]~50 $end
$var wire 1 A! i_presclaer|cnt[9]~51_combout $end
$var wire 1 B! i_presclaer|cnt[9]~52 $end
$var wire 1 C! i_presclaer|cnt[10]~53_combout $end
$var wire 1 D! i_presclaer|cnt[10]~54 $end
$var wire 1 E! i_presclaer|cnt[11]~55_combout $end
$var wire 1 F! i_presclaer|cnt[11]~56 $end
$var wire 1 G! i_presclaer|cnt[12]~57_combout $end
$var wire 1 H! i_presclaer|cnt[12]~58 $end
$var wire 1 I! i_presclaer|cnt[13]~59_combout $end
$var wire 1 J! i_presclaer|cnt[13]~60 $end
$var wire 1 K! i_presclaer|cnt[14]~61_combout $end
$var wire 1 L! i_presclaer|cnt[14]~62 $end
$var wire 1 M! i_presclaer|cnt[15]~63_combout $end
$var wire 1 N! i_presclaer|cnt[15]~64 $end
$var wire 1 O! i_presclaer|cnt[16]~65_combout $end
$var wire 1 P! i_presclaer|cnt[16]~66 $end
$var wire 1 Q! i_presclaer|cnt[17]~67_combout $end
$var wire 1 R! i_presclaer|cnt[17]~68 $end
$var wire 1 S! i_presclaer|cnt[18]~69_combout $end
$var wire 1 T! i_presclaer|cnt[18]~70 $end
$var wire 1 U! i_presclaer|cnt[19]~71_combout $end
$var wire 1 V! i_presclaer|cnt[19]~72 $end
$var wire 1 W! i_presclaer|cnt[20]~73_combout $end
$var wire 1 X! i_presclaer|cnt[20]~74 $end
$var wire 1 Y! i_presclaer|cnt[21]~75_combout $end
$var wire 1 Z! i_presclaer|cnt[21]~76 $end
$var wire 1 [! i_presclaer|cnt[22]~77_combout $end
$var wire 1 \! i_presclaer|cnt[22]~78 $end
$var wire 1 ]! i_presclaer|cnt[23]~79_combout $end
$var wire 1 ^! i_presclaer|cnt[23]~80 $end
$var wire 1 _! i_presclaer|cnt[24]~81_combout $end
$var wire 1 `! i_presclaer|LessThan1~6_combout $end
$var wire 1 a! i_presclaer|LessThan1~5_combout $end
$var wire 1 b! i_presclaer|cnt[24]~82 $end
$var wire 1 c! i_presclaer|cnt[25]~83_combout $end
$var wire 1 d! i_presclaer|cnt[25]~84 $end
$var wire 1 e! i_presclaer|cnt[26]~85_combout $end
$var wire 1 f! i_presclaer|cnt[26]~86 $end
$var wire 1 g! i_presclaer|cnt[27]~87_combout $end
$var wire 1 h! i_presclaer|cnt[27]~88 $end
$var wire 1 i! i_presclaer|cnt[28]~89_combout $end
$var wire 1 j! i_presclaer|cnt[28]~90 $end
$var wire 1 k! i_presclaer|cnt[29]~91_combout $end
$var wire 1 l! i_presclaer|cnt[29]~92 $end
$var wire 1 m! i_presclaer|cnt[30]~93_combout $end
$var wire 1 n! i_presclaer|cnt[30]~94 $end
$var wire 1 o! i_presclaer|cnt[31]~95_combout $end
$var wire 1 p! i_presclaer|LessThan1~7_combout $end
$var wire 1 q! i_presclaer|LessThan1~8_combout $end
$var wire 1 r! i_presclaer|LessThan1~1_combout $end
$var wire 1 s! i_presclaer|LessThan1~3_combout $end
$var wire 1 t! i_presclaer|LessThan1~2_combout $end
$var wire 1 u! i_presclaer|LessThan1~0_combout $end
$var wire 1 v! i_presclaer|LessThan1~4_combout $end
$var wire 1 w! i_presclaer|LessThan1~9_combout $end
$var wire 1 x! i_presclaer|cnt[19]~34_combout $end
$var wire 1 y! i_presclaer|presclaerFlag~0_combout $end
$var wire 1 z! i_presclaer|presclaerFlag~q $end
$var wire 1 {! i_presclaer|preCLK~0_combout $end
$var wire 1 |! i_presclaer|preCLK~q $end
$var wire 1 }! SW[0]~input_o $end
$var wire 1 ~! regLED_buff[0]~0_combout $end
$var wire 1 !" regLED~9_combout $end
$var wire 1 "" regLED~8_combout $end
$var wire 1 #" regLED_buff[8]~feeder_combout $end
$var wire 1 $" regLED~7_combout $end
$var wire 1 %" regLED_buff[7]~feeder_combout $end
$var wire 1 &" regLED~6_combout $end
$var wire 1 '" regLED~5_combout $end
$var wire 1 (" regLED_buff[5]~feeder_combout $end
$var wire 1 )" regLED~4_combout $end
$var wire 1 *" regLED~3_combout $end
$var wire 1 +" regLED_buff[3]~feeder_combout $end
$var wire 1 ," regLED~2_combout $end
$var wire 1 -" regLED~1_combout $end
$var wire 1 ." regLED~0_combout $end
$var wire 1 /" LEDG~0_combout $end
$var wire 1 0" LEDG[0]~reg0_q $end
$var wire 1 1" LEDG~1_combout $end
$var wire 1 2" LEDG[1]~reg0_q $end
$var wire 1 3" LEDG~2_combout $end
$var wire 1 4" LEDG[2]~reg0_q $end
$var wire 1 5" LEDG~3_combout $end
$var wire 1 6" LEDG[3]~reg0_q $end
$var wire 1 7" LEDG~4_combout $end
$var wire 1 8" LEDG[4]~reg0_q $end
$var wire 1 9" LEDG~5_combout $end
$var wire 1 :" LEDG[5]~reg0_q $end
$var wire 1 ;" LEDG~6_combout $end
$var wire 1 <" LEDG[6]~reg0_q $end
$var wire 1 =" LEDG~7_combout $end
$var wire 1 >" LEDG[7]~reg0_q $end
$var wire 1 ?" LEDG~8_combout $end
$var wire 1 @" LEDG[8]~reg0_q $end
$var wire 1 A" LEDG~9_combout $end
$var wire 1 B" LEDG[9]~reg0_q $end
$var wire 1 C" regLED_buff [9] $end
$var wire 1 D" regLED_buff [8] $end
$var wire 1 E" regLED_buff [7] $end
$var wire 1 F" regLED_buff [6] $end
$var wire 1 G" regLED_buff [5] $end
$var wire 1 H" regLED_buff [4] $end
$var wire 1 I" regLED_buff [3] $end
$var wire 1 J" regLED_buff [2] $end
$var wire 1 K" regLED_buff [1] $end
$var wire 1 L" regLED_buff [0] $end
$var wire 1 M" regLED [9] $end
$var wire 1 N" regLED [8] $end
$var wire 1 O" regLED [7] $end
$var wire 1 P" regLED [6] $end
$var wire 1 Q" regLED [5] $end
$var wire 1 R" regLED [4] $end
$var wire 1 S" regLED [3] $end
$var wire 1 T" regLED [2] $end
$var wire 1 U" regLED [1] $end
$var wire 1 V" regLED [0] $end
$var wire 1 W" i_presclaer|cnt [31] $end
$var wire 1 X" i_presclaer|cnt [30] $end
$var wire 1 Y" i_presclaer|cnt [29] $end
$var wire 1 Z" i_presclaer|cnt [28] $end
$var wire 1 [" i_presclaer|cnt [27] $end
$var wire 1 \" i_presclaer|cnt [26] $end
$var wire 1 ]" i_presclaer|cnt [25] $end
$var wire 1 ^" i_presclaer|cnt [24] $end
$var wire 1 _" i_presclaer|cnt [23] $end
$var wire 1 `" i_presclaer|cnt [22] $end
$var wire 1 a" i_presclaer|cnt [21] $end
$var wire 1 b" i_presclaer|cnt [20] $end
$var wire 1 c" i_presclaer|cnt [19] $end
$var wire 1 d" i_presclaer|cnt [18] $end
$var wire 1 e" i_presclaer|cnt [17] $end
$var wire 1 f" i_presclaer|cnt [16] $end
$var wire 1 g" i_presclaer|cnt [15] $end
$var wire 1 h" i_presclaer|cnt [14] $end
$var wire 1 i" i_presclaer|cnt [13] $end
$var wire 1 j" i_presclaer|cnt [12] $end
$var wire 1 k" i_presclaer|cnt [11] $end
$var wire 1 l" i_presclaer|cnt [10] $end
$var wire 1 m" i_presclaer|cnt [9] $end
$var wire 1 n" i_presclaer|cnt [8] $end
$var wire 1 o" i_presclaer|cnt [7] $end
$var wire 1 p" i_presclaer|cnt [6] $end
$var wire 1 q" i_presclaer|cnt [5] $end
$var wire 1 r" i_presclaer|cnt [4] $end
$var wire 1 s" i_presclaer|cnt [3] $end
$var wire 1 t" i_presclaer|cnt [2] $end
$var wire 1 u" i_presclaer|cnt [1] $end
$var wire 1 v" i_presclaer|cnt [0] $end
$upscope $end
$upscope $end
$enddefinitions $end
#0
$dumpvars
0!
b1000000000 "
0,
0+
0*
0)
0(
0'
0&
0%
0$
0#
0L
0K
0J
0I
0H
0G
0F
0E
0D
0C
0B
0A
0@
0?
0>
0=
0<
0;
0:
09
08
07
06
05
04
03
02
01
00
0/
0.
0-
0M
0N
xO
0P
1Q
xR
1S
1T
1U
0V
0W
0X
0Y
0Z
0[
0\
0]
0^
0_
0`
0a
0b
0c
0d
0e
0f
0g
0h
0i
0j
0k
0l
0m
0n
0o
0p
0q
0r
0s
0t
0u
0v
0w
0x
0y
0z
0{
0|
0}
0~
0!!
0"!
0#!
0$!
0%!
0&!
0'!
0(!
0)!
0*!
0+!
0,!
0-!
1.!
1/!
00!
01!
12!
03!
04!
05!
16!
07!
08!
09!
1:!
0;!
0<!
0=!
1>!
0?!
0@!
0A!
1B!
0C!
0D!
0E!
1F!
0G!
0H!
0I!
1J!
0K!
0L!
0M!
1N!
0O!
0P!
0Q!
1R!
0S!
0T!
0U!
1V!
0W!
0X!
0Y!
1Z!
0[!
0\!
0]!
1^!
0_!
0`!
0a!
0b!
0c!
1d!
0e!
0f!
0g!
1h!
0i!
0j!
0k!
1l!
0m!
0n!
0o!
0p!
0q!
0r!
0s!
0t!
0u!
0v!
0w!
1x!
0y!
0z!
1{!
0|!
0}!
1~!
0!"
0""
0#"
0$"
0%"
0&"
0'"
0("
0)"
0*"
0+"
0,"
0-"
1."
0/"
00"
01"
02"
03"
04"
05"
06"
07"
08"
09"
0:"
0;"
0<"
0="
0>"
0?"
0@"
0A"
0B"
0L"
0K"
0J"
0I"
0H"
0G"
0F"
0E"
0D"
0C"
0V"
0U"
0T"
0S"
0R"
0Q"
0P"
0O"
0N"
0M"
0v"
0u"
0t"
0s"
0r"
0q"
0p"
0o"
0n"
0m"
0l"
0k"
0j"
0i"
0h"
0g"
0f"
0e"
0d"
0c"
0b"
0a"
0`"
0_"
0^"
0]"
0\"
0["
0Z"
0Y"
0X"
0W"
$end
#500
1!
1,!
1-!
0O
1L"
1!"
#1000
0!
0,!
0-!
1O
#1500
1!
1,!
1-!
0O
#2000
0!
0,!
0-!
1O
#2500
1!
1,!
1-!
0O
#3000
0!
0,!
0-!
1O
#3500
1!
1,!
1-!
0O
#4000
0!
0,!
0-!
1O
#4500
1!
1,!
1-!
0O
#5000
0!
0,!
0-!
1O
#5500
1!
1,!
1-!
0O
#6000
0!
0,!
0-!
1O
#6500
1!
1,!
1-!
0O
#7000
0!
0,!
0-!
1O
#7500
1!
1,!
1-!
0O
#8000
0!
0,!
0-!
1O
#8500
1!
1,!
1-!
0O
#9000
0!
0,!
0-!
1O
#9500
1!
1,!
1-!
0O
#10000
0!
0,!
0-!
1O
#10500
1!
1,!
1-!
0O
#11000
0!
0,!
0-!
1O
#11500
1!
1,!
1-!
0O
#12000
0!
0,!
0-!
1O
#12500
1!
1,!
1-!
0O
#13000
0!
0,!
0-!
1O
#13500
1!
1,!
1-!
0O
#14000
0!
0,!
0-!
1O
#14500
1!
1,!
1-!
0O
#15000
0!
0,!
0-!
1O
#15500
1!
1,!
1-!
0O
#16000
0!
0,!
0-!
1O
#16500
1!
1,!
1-!
0O
#17000
0!
0,!
0-!
1O
#17500
1!
1,!
1-!
0O
#18000
0!
0,!
0-!
1O
#18500
1!
1,!
1-!
0O
#19000
0!
0,!
0-!
1O
#19500
1!
1,!
1-!
0O
#20000
0!
0,!
0-!
1O
#20500
1!
1,!
1-!
0O
#21000
0!
0,!
0-!
1O
#21500
1!
1,!
1-!
0O
#22000
0!
0,!
0-!
1O
#22500
1!
1,!
1-!
0O
#23000
0!
0,!
0-!
1O
#23500
1!
1,!
1-!
0O
#24000
0!
0,!
0-!
1O
#24500
1!
1,!
1-!
0O
#25000
0!
0,!
0-!
1O
#25500
1!
1,!
1-!
0O
#26000
0!
0,!
0-!
1O
#26500
1!
1,!
1-!
0O
#27000
0!
0,!
0-!
1O
#27500
1!
1,!
1-!
0O
#28000
0!
0,!
0-!
1O
#28500
1!
1,!
1-!
0O
#29000
0!
0,!
0-!
1O
#29500
1!
1,!
1-!
0O
#30000
0!
0,!
0-!
1O
#30500
1!
1,!
1-!
0O
#31000
0!
0,!
0-!
1O
#31500
1!
1,!
1-!
0O
#32000
0!
0,!
0-!
1O
#32500
1!
1,!
1-!
0O
#33000
0!
0,!
0-!
1O
#33500
1!
1,!
1-!
0O
#34000
0!
0,!
0-!
1O
#34500
1!
1,!
1-!
0O
#35000
0!
0,!
0-!
1O
#35500
1!
1,!
1-!
0O
#36000
0!
0,!
0-!
1O
#36500
1!
1,!
1-!
0O
#37000
0!
0,!
0-!
1O
#37500
1!
1,!
1-!
0O
#38000
0!
0,!
0-!
1O
#38500
1!
1,!
1-!
0O
#39000
0!
0,!
0-!
1O
#39500
1!
1,!
1-!
0O
#40000
0!
0,!
0-!
1O
#40500
1!
1,!
1-!
0O
#41000
0!
0,!
0-!
1O
#41500
1!
1,!
1-!
0O
#42000
0!
0,!
0-!
1O
#42500
1!
1,!
1-!
0O
#43000
0!
0,!
0-!
1O
#43500
1!
1,!
1-!
0O
#44000
0!
0,!
0-!
1O
#44500
1!
1,!
1-!
0O
#45000
0!
0,!
0-!
1O
#45500
1!
1,!
1-!
0O
#46000
0!
0,!
0-!
1O
#46500
1!
1,!
1-!
0O
#47000
0!
0,!
0-!
1O
#47500
1!
1,!
1-!
0O
#48000
0!
0,!
0-!
1O
#48500
1!
1,!
1-!
0O
#49000
0!
0,!
0-!
1O
#49500
1!
1,!
1-!
0O
#50000
0!
0,!
0-!
1O
#50500
1!
1,!
1-!
0O
#51000
0!
0,!
0-!
1O
#51500
1!
1,!
1-!
0O
#52000
0!
0,!
0-!
1O
#52500
1!
1,!
1-!
0O
#53000
0!
0,!
0-!
1O
#53500
1!
1,!
1-!
0O
#54000
0!
0,!
0-!
1O
#54500
1!
1,!
1-!
0O
#55000
0!
0,!
0-!
1O
#55500
1!
1,!
1-!
0O
#56000
0!
0,!
0-!
1O
#56500
1!
1,!
1-!
0O
#57000
0!
0,!
0-!
1O
#57500
1!
1,!
1-!
0O
#58000
0!
0,!
0-!
1O
#58500
1!
1,!
1-!
0O
#59000
0!
0,!
0-!
1O
#59500
1!
1,!
1-!
0O
#60000
0!
0,!
0-!
1O
#60500
1!
1,!
1-!
0O
#61000
0!
0,!
0-!
1O
#61500
1!
1,!
1-!
0O
#62000
0!
0,!
0-!
1O
#62500
1!
1,!
1-!
0O
#63000
0!
0,!
0-!
1O
#63500
1!
1,!
1-!
0O
#64000
0!
0,!
0-!
1O
#64500
1!
1,!
1-!
0O
#65000
0!
0,!
0-!
1O
#65500
1!
1,!
1-!
0O
#66000
0!
0,!
0-!
1O
#66500
1!
1,!
1-!
0O
#67000
0!
0,!
0-!
1O
#67500
1!
1,!
1-!
0O
#68000
0!
0,!
0-!
1O
#68500
1!
1,!
1-!
0O
#69000
0!
0,!
0-!
1O
#69500
1!
1,!
1-!
0O
#70000
0!
0,!
0-!
1O
#70500
1!
1,!
1-!
0O
#71000
0!
0,!
0-!
1O
#71500
1!
1,!
1-!
0O
#72000
0!
0,!
0-!
1O
#72500
1!
1,!
1-!
0O
#73000
0!
0,!
0-!
1O
#73500
1!
1,!
1-!
0O
#74000
0!
0,!
0-!
1O
#74500
1!
1,!
1-!
0O
#75000
0!
0,!
0-!
1O
#75500
1!
1,!
1-!
0O
#76000
0!
0,!
0-!
1O
#76500
1!
1,!
1-!
0O
#77000
0!
0,!
0-!
1O
#77500
1!
1,!
1-!
0O
#78000
0!
0,!
0-!
1O
#78500
1!
1,!
1-!
0O
#79000
0!
0,!
0-!
1O
#79500
1!
1,!
1-!
0O
#80000
0!
0,!
0-!
1O
#80500
1!
1,!
1-!
0O
#81000
0!
0,!
0-!
1O
#81500
1!
1,!
1-!
0O
#82000
0!
0,!
0-!
1O
#82500
1!
1,!
1-!
0O
#83000
0!
0,!
0-!
1O
#83500
1!
1,!
1-!
0O
#84000
0!
0,!
0-!
1O
#84500
1!
1,!
1-!
0O
#85000
0!
0,!
0-!
1O
#85500
1!
1,!
1-!
0O
#86000
0!
0,!
0-!
1O
#86500
1!
1,!
1-!
0O
#87000
0!
0,!
0-!
1O
#87500
1!
1,!
1-!
0O
#88000
0!
0,!
0-!
1O
#88500
1!
1,!
1-!
0O
#89000
0!
0,!
0-!
1O
#89500
1!
1,!
1-!
0O
#90000
0!
0,!
0-!
1O
#90500
1!
1,!
1-!
0O
#91000
0!
0,!
0-!
1O
#91500
1!
1,!
1-!
0O
#92000
0!
0,!
0-!
1O
#92500
1!
1,!
1-!
0O
#93000
0!
0,!
0-!
1O
#93500
1!
1,!
1-!
0O
#94000
0!
0,!
0-!
1O
#94500
1!
1,!
1-!
0O
#95000
0!
0,!
0-!
1O
#95500
1!
1,!
1-!
0O
#96000
0!
0,!
0-!
1O
#96500
1!
1,!
1-!
0O
#97000
0!
0,!
0-!
1O
#97500
1!
1,!
1-!
0O
#98000
0!
0,!
0-!
1O
#98500
1!
1,!
1-!
0O
#99000
0!
0,!
0-!
1O
#99500
1!
1,!
1-!
0O
#100000
0!
0,!
0-!
1O
#100500
1!
1,!
1-!
0O
#101000
0!
0,!
0-!
1O
#101500
1!
1,!
1-!
0O
#102000
0!
0,!
0-!
1O
#102500
1!
1,!
1-!
0O
#103000
0!
0,!
0-!
1O
#103500
1!
1,!
1-!
0O
#104000
0!
0,!
0-!
1O
#104500
1!
1,!
1-!
0O
#105000
0!
0,!
0-!
1O
#105500
1!
1,!
1-!
0O
#106000
0!
0,!
0-!
1O
#106500
1!
1,!
1-!
0O
#107000
0!
0,!
0-!
1O
#107500
1!
1,!
1-!
0O
#108000
0!
0,!
0-!
1O
#108500
1!
1,!
1-!
0O
#109000
0!
0,!
0-!
1O
#109500
1!
1,!
1-!
0O
#110000
0!
0,!
0-!
1O
#110500
1!
1,!
1-!
0O
#111000
0!
0,!
0-!
1O
#111500
1!
1,!
1-!
0O
#112000
0!
0,!
0-!
1O
#112500
1!
1,!
1-!
0O
#113000
0!
0,!
0-!
1O
#113500
1!
1,!
1-!
0O
#114000
0!
0,!
0-!
1O
#114500
1!
1,!
1-!
0O
#115000
0!
0,!
0-!
1O
#115500
1!
1,!
1-!
0O
#116000
0!
0,!
0-!
1O
#116500
1!
1,!
1-!
0O
#117000
0!
0,!
0-!
1O
#117500
1!
1,!
1-!
0O
#118000
0!
0,!
0-!
1O
#118500
1!
1,!
1-!
0O
#119000
0!
0,!
0-!
1O
#119500
1!
1,!
1-!
0O
#120000
0!
0,!
0-!
1O
#120500
1!
1,!
1-!
0O
#121000
0!
0,!
0-!
1O
#121500
1!
1,!
1-!
0O
#122000
0!
0,!
0-!
1O
#122500
1!
1,!
1-!
0O
#123000
0!
0,!
0-!
1O
#123500
1!
1,!
1-!
0O
#124000
0!
0,!
0-!
1O
#124500
1!
1,!
1-!
0O
#125000
0!
0,!
0-!
1O
#125500
1!
1,!
1-!
0O
#126000
0!
0,!
0-!
1O
#126500
1!
1,!
1-!
0O
#127000
0!
0,!
0-!
1O
#127500
1!
1,!
1-!
0O
#128000
0!
0,!
0-!
1O
#128500
1!
1,!
1-!
0O
#129000
0!
0,!
0-!
1O
#129500
1!
1,!
1-!
0O
#130000
0!
0,!
0-!
1O
#130500
1!
1,!
1-!
0O
#131000
0!
0,!
0-!
1O
#131500
1!
1,!
1-!
0O
#132000
0!
0,!
0-!
1O
#132500
1!
1,!
1-!
0O
#133000
0!
0,!
0-!
1O
#133500
1!
1,!
1-!
0O
#134000
0!
0,!
0-!
1O
#134500
1!
1,!
1-!
0O
#135000
0!
0,!
0-!
1O
#135500
1!
1,!
1-!
0O
#136000
0!
0,!
0-!
1O
#136500
1!
1,!
1-!
0O
#137000
0!
0,!
0-!
1O
#137500
1!
1,!
1-!
0O
#138000
0!
0,!
0-!
1O
#138500
1!
1,!
1-!
0O
#139000
0!
0,!
0-!
1O
#139500
1!
1,!
1-!
0O
#140000
0!
0,!
0-!
1O
#140500
1!
1,!
1-!
0O
#141000
0!
0,!
0-!
1O
#141500
1!
1,!
1-!
0O
#142000
0!
0,!
0-!
1O
#142500
1!
1,!
1-!
0O
#143000
0!
0,!
0-!
1O
#143500
1!
1,!
1-!
0O
#144000
0!
0,!
0-!
1O
#144500
1!
1,!
1-!
0O
#145000
0!
0,!
0-!
1O
#145500
1!
1,!
1-!
0O
#146000
0!
0,!
0-!
1O
#146500
1!
1,!
1-!
0O
#147000
0!
0,!
0-!
1O
#147500
1!
1,!
1-!
0O
#148000
0!
0,!
0-!
1O
#148500
1!
1,!
1-!
0O
#149000
0!
0,!
0-!
1O
#149500
1!
1,!
1-!
0O
#150000
0!
0,!
0-!
1O
#150500
1!
1,!
1-!
0O
#151000
0!
0,!
0-!
1O
#151500
1!
1,!
1-!
0O
#152000
0!
0,!
0-!
1O
#152500
1!
1,!
1-!
0O
#153000
0!
0,!
0-!
1O
#153500
1!
1,!
1-!
0O
#154000
0!
0,!
0-!
1O
#154500
1!
1,!
1-!
0O
#155000
0!
0,!
0-!
1O
#155500
1!
1,!
1-!
0O
#156000
0!
0,!
0-!
1O
#156500
1!
1,!
1-!
0O
#157000
0!
0,!
0-!
1O
#157500
1!
1,!
1-!
0O
#158000
0!
0,!
0-!
1O
#158500
1!
1,!
1-!
0O
#159000
0!
0,!
0-!
1O
#159500
1!
1,!
1-!
0O
#160000
0!
0,!
0-!
1O
#160500
1!
1,!
1-!
0O
#161000
0!
0,!
0-!
1O
#161500
1!
1,!
1-!
0O
#162000
0!
0,!
0-!
1O
#162500
1!
1,!
1-!
0O
#163000
0!
0,!
0-!
1O
#163500
1!
1,!
1-!
0O
#164000
0!
0,!
0-!
1O
#164500
1!
1,!
1-!
0O
#165000
0!
0,!
0-!
1O
#165500
1!
1,!
1-!
0O
#166000
0!
0,!
0-!
1O
#166500
1!
1,!
1-!
0O
#167000
0!
0,!
0-!
1O
#167500
1!
1,!
1-!
0O
#168000
0!
0,!
0-!
1O
#168500
1!
1,!
1-!
0O
#169000
0!
0,!
0-!
1O
#169500
1!
1,!
1-!
0O
#170000
0!
0,!
0-!
1O
#170500
1!
1,!
1-!
0O
#171000
0!
0,!
0-!
1O
#171500
1!
1,!
1-!
0O
#172000
0!
0,!
0-!
1O
#172500
1!
1,!
1-!
0O
#173000
0!
0,!
0-!
1O
#173500
1!
1,!
1-!
0O
#174000
0!
0,!
0-!
1O
#174500
1!
1,!
1-!
0O
#175000
0!
0,!
0-!
1O
#175500
1!
1,!
1-!
0O
#176000
0!
0,!
0-!
1O
#176500
1!
1,!
1-!
0O
#177000
0!
0,!
0-!
1O
#177500
1!
1,!
1-!
0O
#178000
0!
0,!
0-!
1O
#178500
1!
1,!
1-!
0O
#179000
0!
0,!
0-!
1O
#179500
1!
1,!
1-!
0O
#180000
0!
0,!
0-!
1O
#180500
1!
1,!
1-!
0O
#181000
0!
0,!
0-!
1O
#181500
1!
1,!
1-!
0O
#182000
0!
0,!
0-!
1O
#182500
1!
1,!
1-!
0O
#183000
0!
0,!
0-!
1O
#183500
1!
1,!
1-!
0O
#184000
0!
0,!
0-!
1O
#184500
1!
1,!
1-!
0O
#185000
0!
0,!
0-!
1O
#185500
1!
1,!
1-!
0O
#186000
0!
0,!
0-!
1O
#186500
1!
1,!
1-!
0O
#187000
0!
0,!
0-!
1O
#187500
1!
1,!
1-!
0O
#188000
0!
0,!
0-!
1O
#188500
1!
1,!
1-!
0O
#189000
0!
0,!
0-!
1O
#189500
1!
1,!
1-!
0O
#190000
0!
0,!
0-!
1O
#190500
1!
1,!
1-!
0O
#191000
0!
0,!
0-!
1O
#191500
1!
1,!
1-!
0O
#192000
0!
0,!
0-!
1O
#192500
1!
1,!
1-!
0O
#193000
0!
0,!
0-!
1O
#193500
1!
1,!
1-!
0O
#194000
0!
0,!
0-!
1O
#194500
1!
1,!
1-!
0O
#195000
0!
0,!
0-!
1O
#195500
1!
1,!
1-!
0O
#196000
0!
0,!
0-!
1O
#196500
1!
1,!
1-!
0O
#197000
0!
0,!
0-!
1O
#197500
1!
1,!
1-!
0O
#198000
0!
0,!
0-!
1O
#198500
1!
1,!
1-!
0O
#199000
0!
0,!
0-!
1O
#199500
1!
1,!
1-!
0O
#200000
0!
0,!
0-!
1O
#200500
1!
1,!
1-!
0O
#201000
0!
0,!
0-!
1O
#201500
1!
1,!
1-!
0O
#202000
0!
0,!
0-!
1O
#202500
1!
1,!
1-!
0O
#203000
0!
0,!
0-!
1O
#203500
1!
1,!
1-!
0O
#204000
0!
0,!
0-!
1O
#204500
1!
1,!
1-!
0O
#205000
0!
0,!
0-!
1O
#205500
1!
1,!
1-!
0O
#206000
0!
0,!
0-!
1O
