Lab6/simulation/qsim/lab6.msim.vcd
$comment
	File created using the following command:
		vcd file lab6.msim.vcd -direction
$end
$date
	Fri Jan 20 18:37:57 2023
$end
$version
	ModelSim Version 10.1d
$end
$timescale
	1ps
$end
$scope module lab6_vlg_vec_tst $end
$var reg 1 ! CLOCK_50_2 $end
$var reg 10 " SW [9:0] $end
$var wire 1 # LEDG [9] $end
$var wire 1 $ LEDG [8] $end
$var wire 1 % LEDG [7] $end
$var wire 1 & LEDG [6] $end
$var wire 1 ' LEDG [5] $end
$var wire 1 ( LEDG [4] $end
$var wire 1 ) LEDG [3] $end
$var wire 1 * LEDG [2] $end
$var wire 1 + LEDG [1] $end
$var wire 1 , LEDG [0] $end
$var wire 1 - cnt [31] $end
$var wire 1 . cnt [30] $end
$var wire 1 / cnt [29] $end
$var wire 1 0 cnt [28] $end
$var wire 1 1 cnt [27] $end
$var wire 1 2 cnt [26] $end
$var wire 1 3 cnt [25] $end
$var wire 1 4 cnt [24] $end
$var wire 1 5 cnt [23] $end
$var wire 1 6 cnt [22] $end
$var wire 1 7 cnt [21] $end
$var wire 1 8 cnt [20] $end
$var wire 1 9 cnt [19] $end
$var wire 1 : cnt [18] $end
$var wire 1 ; cnt [17] $end
$var wire 1 < cnt [16] $end
$var wire 1 = cnt [15] $end
$var wire 1 > cnt [14] $end
$var wire 1 ? cnt [13] $end
$var wire 1 @ cnt [12] $end
$var wire 1 A cnt [11] $end
$var wire 1 B cnt [10] $end
$var wire 1 C cnt [9] $end
$var wire 1 D cnt [8] $end
$var wire 1 E cnt [7] $end
$var wire 1 F cnt [6] $end
$var wire 1 G cnt [5] $end
$var wire 1 H cnt [4] $end
$var wire 1 I cnt [3] $end
$var wire 1 J cnt [2] $end
$var wire 1 K cnt [1] $end
$var wire 1 L cnt [0] $end
$var wire 1 M flag $end
$var wire 1 N sampler $end
$scope module i1 $end
$var wire 1 O gnd $end
$var wire 1 P vcc $end
$var wire 1 Q unknown $end
$var tri1 1 R devclrn $end
$var tri1 1 S devpor $end
$var tri1 1 T devoe $end
$var wire 1 U SW[0]~input_o $end
$var wire 1 V SW[1]~input_o $end
$var wire 1 W SW[2]~input_o $end
$var wire 1 X SW[3]~input_o $end
$var wire 1 Y SW[4]~input_o $end
$var wire 1 Z SW[5]~input_o $end
$var wire 1 [ SW[6]~input_o $end
$var wire 1 \ SW[7]~input_o $end
$var wire 1 ] SW[8]~input_o $end
$var wire 1 ^ cnt[0]~output_o $end
$var wire 1 _ cnt[1]~output_o $end
$var wire 1 ` cnt[2]~output_o $end
$var wire 1 a cnt[3]~output_o $end
$var wire 1 b cnt[4]~output_o $end
$var wire 1 c cnt[5]~output_o $end
$var wire 1 d cnt[6]~output_o $end
$var wire 1 e cnt[7]~output_o $end
$var wire 1 f cnt[8]~output_o $end
$var wire 1 g cnt[9]~output_o $end
$var wire 1 h cnt[10]~output_o $end
$var wire 1 i cnt[11]~output_o $end
$var wire 1 j cnt[12]~output_o $end
$var wire 1 k cnt[13]~output_o $end
$var wire 1 l cnt[14]~output_o $end
$var wire 1 m cnt[15]~output_o $end
$var wire 1 n cnt[16]~output_o $end
$var wire 1 o cnt[17]~output_o $end
$var wire 1 p cnt[18]~output_o $end
$var wire 1 q cnt[19]~output_o $end
$var wire 1 r cnt[20]~output_o $end
$var wire 1 s cnt[21]~output_o $end
$var wire 1 t cnt[22]~output_o $end
$var wire 1 u cnt[23]~output_o $end
$var wire 1 v cnt[24]~output_o $end
$var wire 1 w cnt[25]~output_o $end
$var wire 1 x cnt[26]~output_o $end
$var wire 1 y cnt[27]~output_o $end
$var wire 1 z cnt[28]~output_o $end
$var wire 1 { cnt[29]~output_o $end
$var wire 1 | cnt[30]~output_o $end
$var wire 1 } cnt[31]~output_o $end
$var wire 1 ~ flag~output_o $end
$var wire 1 !! LEDG[0]~output_o $end
$var wire 1 "! LEDG[1]~output_o $end
$var wire 1 #! LEDG[2]~output_o $end
$var wire 1 $! LEDG[3]~output_o $end
$var wire 1 %! LEDG[4]~output_o $end
$var wire 1 &! LEDG[5]~output_o $end
$var wire 1 '! LEDG[6]~output_o $end
$var wire 1 (! LEDG[7]~output_o $end
$var wire 1 )! LEDG[8]~output_o $end
$var wire 1 *! LEDG[9]~output_o $end
$var wire 1 +! CLOCK_50_2~input_o $end
$var wire 1 ,! CLOCK_50_2~inputclkctrl_outclk $end
$var wire 1 -! cnt[0]~32_combout $end
$var wire 1 .! cnt[0]~33 $end
$var wire 1 /! cnt[1]~34_combout $end
$var wire 1 0! cnt[1]~reg0_q $end
$var wire 1 1! cnt[1]~35 $end
$var wire 1 2! cnt[2]~36_combout $end
$var wire 1 3! cnt[2]~reg0_q $end
$var wire 1 4! cnt[2]~37 $end
$var wire 1 5! cnt[3]~38_combout $end
$var wire 1 6! cnt[3]~reg0_q $end
$var wire 1 7! cnt[3]~39 $end
$var wire 1 8! cnt[4]~40_combout $end
$var wire 1 9! cnt[4]~reg0_q $end
$var wire 1 :! cnt[4]~41 $end
$var wire 1 ;! cnt[5]~42_combout $end
$var wire 1 <! cnt[5]~reg0_q $end
$var wire 1 =! cnt[5]~43 $end
$var wire 1 >! cnt[6]~44_combout $end
$var wire 1 ?! cnt[6]~reg0_q $end
$var wire 1 @! cnt[6]~45 $end
$var wire 1 A! cnt[7]~46_combout $end
$var wire 1 B! cnt[7]~reg0_q $end
$var wire 1 C! cnt[7]~47 $end
$var wire 1 D! cnt[8]~48_combout $end
$var wire 1 E! cnt[8]~reg0_q $end
$var wire 1 F! cnt[8]~49 $end
$var wire 1 G! cnt[9]~50_combout $end
$var wire 1 H! cnt[9]~reg0_q $end
$var wire 1 I! cnt[9]~51 $end
$var wire 1 J! cnt[10]~52_combout $end
$var wire 1 K! cnt[10]~reg0_q $end
$var wire 1 L! cnt[10]~53 $end
$var wire 1 M! cnt[11]~54_combout $end
$var wire 1 N! cnt[11]~reg0_q $end
$var wire 1 O! cnt[11]~55 $end
$var wire 1 P! cnt[12]~56_combout $end
$var wire 1 Q! cnt[12]~reg0_q $end
$var wire 1 R! cnt[12]~57 $end
$var wire 1 S! cnt[13]~58_combout $end
$var wire 1 T! cnt[13]~reg0_q $end
$var wire 1 U! cnt[13]~59 $end
$var wire 1 V! cnt[14]~60_combout $end
$var wire 1 W! cnt[14]~reg0_q $end
$var wire 1 X! cnt[14]~61 $end
$var wire 1 Y! cnt[15]~62_combout $end
$var wire 1 Z! cnt[15]~reg0_q $end
$var wire 1 [! cnt[15]~63 $end
$var wire 1 \! cnt[16]~64_combout $end
$var wire 1 ]! cnt[16]~reg0_q $end
$var wire 1 ^! cnt[16]~65 $end
$var wire 1 _! cnt[17]~66_combout $end
$var wire 1 `! cnt[17]~reg0_q $end
$var wire 1 a! cnt[17]~67 $end
$var wire 1 b! cnt[18]~68_combout $end
$var wire 1 c! cnt[18]~reg0_q $end
$var wire 1 d! cnt[18]~69 $end
$var wire 1 e! cnt[19]~70_combout $end
$var wire 1 f! cnt[19]~reg0_q $end
$var wire 1 g! cnt[19]~71 $end
$var wire 1 h! cnt[20]~72_combout $end
$var wire 1 i! cnt[20]~reg0_q $end
$var wire 1 j! cnt[20]~73 $end
$var wire 1 k! cnt[21]~74_combout $end
$var wire 1 l! cnt[21]~reg0_q $end
$var wire 1 m! cnt[21]~75 $end
$var wire 1 n! cnt[22]~76_combout $end
$var wire 1 o! cnt[22]~reg0_q $end
$var wire 1 p! cnt[22]~77 $end
$var wire 1 q! cnt[23]~78_combout $end
$var wire 1 r! cnt[23]~reg0_q $end
$var wire 1 s! cnt[23]~79 $end
$var wire 1 t! cnt[24]~80_combout $end
$var wire 1 u! cnt[24]~reg0_q $end
$var wire 1 v! cnt[24]~81 $end
$var wire 1 w! cnt[25]~82_combout $end
$var wire 1 x! cnt[25]~reg0_q $end
$var wire 1 y! LessThan1~6_combout $end
$var wire 1 z! LessThan1~5_combout $end
$var wire 1 {! cnt[25]~83 $end
$var wire 1 |! cnt[26]~84_combout $end
$var wire 1 }! cnt[26]~reg0_q $end
$var wire 1 ~! cnt[26]~85 $end
$var wire 1 !" cnt[27]~86_combout $end
$var wire 1 "" cnt[27]~reg0_q $end
$var wire 1 #" cnt[27]~87 $end
$var wire 1 $" cnt[28]~88_combout $end
$var wire 1 %" cnt[28]~reg0_q $end
$var wire 1 &" cnt[28]~89 $end
$var wire 1 '" cnt[29]~90_combout $end
$var wire 1 (" cnt[29]~reg0_q $end
$var wire 1 )" cnt[29]~91 $end
$var wire 1 *" cnt[30]~92_combout $end
$var wire 1 +" cnt[30]~reg0_q $end
$var wire 1 ," cnt[30]~93 $end
$var wire 1 -" cnt[31]~94_combout $end
$var wire 1 ." cnt[31]~reg0_q $end
$var wire 1 /" LessThan1~7_combout $end
$var wire 1 0" LessThan1~8_combout $end
$var wire 1 1" LessThan1~0_combout $end
$var wire 1 2" LessThan1~1_combout $end
$var wire 1 3" LessThan1~3_combout $end
$var wire 1 4" LessThan1~2_combout $end
$var wire 1 5" LessThan1~4_combout $end
$var wire 1 6" LessThan1~9_combout $end
$var wire 1 7" cnt[0]~reg0_q $end
$var wire 1 8" flag~0_combout $end
$var wire 1 9" flag~reg0_q $end
$var wire 1 :" SW[9]~input_o $end
$var wire 1 ;" out~0_combout $end
$var wire 1 <" out~q $end
$upscope $end
$upscope $end
$enddefinitions $end
#0
$dumpvars
0!
b0 "
1,
0+
0*
0)
0(
0'
0&
0%
0$
0#
0L
0K
0J
0I
0H
0G
0F
0E
0D
0C
0B
0A
0@
0?
0>
0=
0<
0;
0:
09
08
07
06
05
04
03
02
01
00
0/
0.
0-
0M
xN
0O
1P
xQ
1R
1S
1T
0U
0V
0W
0X
0Y
0Z
0[
0\
0]
0^
0_
0`
0a
0b
0c
0d
0e
0f
0g
0h
0i
0j
0k
0l
0m
0n
0o
0p
0q
0r
0s
0t
0u
0v
0w
0x
0y
0z
0{
0|
0}
0~
1!!
0"!
0#!
0$!
0%!
0&!
0'!
0(!
0)!
0*!
0+!
0,!
1-!
0.!
0/!
00!
11!
02!
03!
04!
05!
06!
17!
08!
09!
0:!
0;!
0<!
1=!
0>!
0?!
0@!
0A!
0B!
1C!
0D!
0E!
0F!
0G!
0H!
1I!
0J!
0K!
0L!
0M!
0N!
1O!
0P!
0Q!
0R!
0S!
0T!
1U!
0V!
0W!
0X!
0Y!
0Z!
1[!
0\!
0]!
0^!
0_!
0`!
1a!
0b!
0c!
0d!
0e!
0f!
1g!
0h!
0i!
0j!
0k!
0l!
1m!
0n!
0o!
0p!
0q!
0r!
1s!
0t!
0u!
0v!
0w!
0x!
1y!
1z!
1{!
0|!
0}!
0~!
0!"
0""
1#"
0$"
0%"
0&"
0'"
0("
1)"
0*"
0+"
0,"
0-"
0."
1/"
10"
11"
12"
13"
14"
15"
16"
07"
08"
09"
0:"
0;"
0<"
$end
#500
1!
1+!
1,!
0N
17"
1.!
0-!
1^
1L
1/!
#1000
0!
0+!
0,!
1N
#1500
1!
1+!
1,!
0N
07"
10!
0.!
1-!
01!
0/!
0^
1_
0L
1K
11!
1/!
12!
02!
#2000
0!
0+!
0,!
1N
#2500
1!
1+!
1,!
0N
17"
1.!
0-!
1^
1L
01!
0/!
12!
#3000
0!
0+!
0,!
1N
#3500
1!
1+!
1,!
0N
07"
13!
00!
0.!
1-!
14!
02!
11!
1/!
0^
1`
0_
0L
1J
0K
0/!
15!
04!
12!
05!
#4000
0!
0+!
0,!
1N
#4500
1!
1+!
1,!
0N
17"
1.!
0-!
1^
1L
1/!
#5000
0!
0+!
0,!
1N
#5500
1!
1+!
1,!
0N
07"
10!
0.!
1-!
01!
0/!
0^
1_
0L
1K
11!
1/!
14!
02!
04!
12!
15!
05!
#6000
0!
0+!
0,!
1N
#6500
1!
1+!
1,!
0N
17"
1.!
0-!
1^
1L
01!
0/!
14!
02!
15!
#7000
0!
0+!
0,!
1N
#7500
1!
1+!
1,!
0N
07"
16!
03!
00!
0.!
1-!
07!
05!
04!
12!
11!
1/!
0^
1a
0`
0_
0L
1I
0J
0K
0/!
18!
17!
15!
02!
08!
#8000
0!
0+!
0,!
1N
#8500
1!
1+!
1,!
0N
17"
1.!
0-!
1^
1L
1/!
#9000
0!
0+!
0,!
1N
#9500
1!
1+!
1,!
0N
07"
10!
0.!
1-!
01!
0/!
0^
1_
0L
1K
11!
1/!
12!
02!
#10000
0!
0+!
0,!
1N
#10500
1!
1+!
1,!
0N
17"
1.!
0-!
1^
1L
01!
0/!
12!
#11000
0!
0+!
0,!
1N
#11500
1!
1+!
1,!
0N
07"
13!
00!
0.!
1-!
14!
02!
11!
1/!
0^
1`
0_
0L
1J
0K
0/!
07!
05!
04!
12!
18!
17!
15!
08!
#12000
0!
0+!
0,!
1N
#12500
1!
1+!
1,!
0N
17"
1.!
0-!
1^
1L
1/!
#13000
0!
0+!
0,!
1N
#13500
1!
1+!
1,!
0N
07"
10!
0.!
1-!
01!
0/!
0^
1_
0L
1K
11!
1/!
14!
02!
04!
12!
07!
05!
17!
15!
18!
08!
#14000
0!
0+!
0,!
1N
#14500
1!
1+!
1,!
0N
17"
1.!
0-!
1^
1L
01!
0/!
14!
02!
07!
05!
18!
#15000
0!
0+!
0,!
1N
#15500
1!
1+!
1,!
0N
07"
19!
06!
03!
00!
0.!
1-!
1:!
08!
17!
15!
04!
12!
11!
1/!
0^
1b
0a
0`
0_
0L
1H
0I
0J
0K
0/!
1;!
0:!
18!
05!
02!
0;!
#16000
0!
0+!
0,!
1N
#16500
1!
1+!
1,!
0N
17"
1.!
0-!
1^
1L
1/!
#17000
0!
0+!
0,!
1N
#17500
1!
1+!
1,!
0N
07"
10!
0.!
1-!
01!
0/!
0^
1_
0L
1K
11!
1/!
12!
02!
#18000
0!
0+!
0,!
1N
#18500
1!
1+!
1,!
0N
17"
1.!
0-!
1^
1L
01!
0/!
12!
#19000
0!
0+!
0,!
1N
#19500
1!
1+!
1,!
0N
07"
13!
00!
0.!
1-!
01"
14!
02!
11!
1/!
0^
1`
0_
0L
1J
0K
0/!
05"
15!
04!
12!
06"
05!
18"
#20000
0!
0+!
0,!
1N
#20500
1!
1+!
1,!
0N
19"
09!
03!
1;"
11"
08!
02!
1~
0b
0`
1M
0H
0J
15"
16"
08"
#21000
0!
0+!
0,!
1N
#21500
1!
1+!
1,!
0N
1<"
09"
17"
1.!
0-!
0!!
0~
1^
0,
0M
1L
1/!
#22000
0!
0+!
0,!
1N
#22500
1!
1+!
1,!
0N
07"
10!
0.!
1-!
01!
0/!
0^
1_
0L
1K
11!
1/!
12!
02!
#23000
0!
0+!
0,!
1N
#23500
1!
1+!
1,!
0N
17"
1.!
0-!
1^
1L
01!
0/!
12!
#24000
0!
0+!
0,!
1N
#24500
1!
1+!
1,!
0N
07"
13!
00!
0.!
1-!
14!
02!
11!
1/!
0^
1`
0_
0L
1J
0K
0/!
15!
04!
12!
05!
#25000
0!
0+!
0,!
1N
#25500
1!
1+!
1,!
0N
17"
1.!
0-!
1^
1L
1/!
#26000
0!
0+!
0,!
1N
#26500
1!
1+!
1,!
0N
07"
10!
0.!
1-!
01!
0/!
0^
1_
0L
1K
11!
1/!
14!
02!
04!
12!
15!
05!
#27000
0!
0+!
0,!
1N
#27500
1!
1+!
1,!
0N
17"
1.!
0-!
1^
1L
01!
0/!
14!
02!
15!
#28000
0!
0+!
0,!
1N
#28500
1!
1+!
1,!
0N
07"
16!
03!
00!
0.!
1-!
07!
05!
04!
12!
11!
1/!
0^
1a
0`
0_
0L
1I
0J
0K
0/!
18!
17!
15!
02!
08!
#29000
0!
0+!
0,!
1N
#29500
1!
1+!
1,!
0N
17"
1.!
0-!
1^
1L
1/!
#30000
0!
0+!
0,!
1N
#30500
1!
1+!
1,!
0N
07"
10!
0.!
1-!
01!
0/!
0^
1_
0L
1K
11!
1/!
12!
02!
#31000
0!
0+!
0,!
1N
#31500
1!
1+!
1,!
0N
17"
1.!
0-!
1^
1L
01!
0/!
12!
#32000
0!
0+!
0,!
1N
#32500
1!
1+!
1,!
0N
07"
13!
00!
0.!
1-!
14!
02!
11!
1/!
0^
1`
0_
0L
1J
0K
0/!
07!
05!
04!
12!
18!
17!
15!
08!
#33000
0!
0+!
0,!
1N
#33500
1!
1+!
1,!
0N
17"
1.!
0-!
1^
1L
1/!
#34000
0!
0+!
0,!
1N
#34500
1!
1+!
1,!
0N
07"
10!
0.!
1-!
01!
0/!
0^
1_
0L
1K
11!
1/!
14!
02!
04!
12!
07!
05!
17!
15!
18!
08!
#35000
0!
0+!
0,!
1N
#35500
1!
1+!
1,!
0N
17"
1.!
0-!
1^
1L
01!
0/!
14!
02!
07!
05!
18!
#36000
0!
0+!
0,!
1N
#36500
1!
1+!
1,!
0N
07"
19!
06!
03!
00!
0.!
1-!
1:!
08!
17!
15!
04!
12!
11!
1/!
0^
1b
0a
0`
0_
0L
1H
0I
0J
0K
0/!
1;!
0:!
18!
05!
02!
0;!
#37000
0!
0+!
0,!
1N
#37500
1!
1+!
1,!
0N
17"
1.!
0-!
1^
1L
1/!
#38000
0!
0+!
0,!
1N
#38500
1!
1+!
1,!
0N
07"
10!
0.!
1-!
01!
0/!
0^
1_
0L
1K
11!
1/!
12!
02!
#39000
0!
0+!
0,!
1N
#39500
1!
1+!
1,!
0N
17"
1.!
0-!
1^
1L
01!
0/!
12!
#40000
0!
0+!
0,!
1N
#40500
1!
1+!
1,!
0N
07"
13!
00!
0.!
1-!
01"
14!
02!
11!
1/!
0^
1`
0_
0L
1J
0K
0/!
05"
15!
04!
12!
06"
05!
18"
#41000
0!
0+!
0,!
1N
#41500
1!
1+!
1,!
0N
19"
09!
03!
11"
08!
02!
1~
0b
0`
1M
0H
0J
15"
16"
08"
#42000
0!
0+!
0,!
1N
#42500
1!
1+!
1,!
0N
09"
17"
1.!
0-!
0~
1^
0M
1L
1/!
#43000
0!
0+!
0,!
1N
#43500
1!
1+!
1,!
0N
07"
10!
0.!
1-!
01!
0/!
0^
1_
0L
1K
11!
1/!
12!
02!
#44000
0!
0+!
0,!
1N
#44500
1!
1+!
1,!
0N
17"
1.!
0-!
1^
1L
01!
0/!
12!
#45000
0!
0+!
0,!
1N
#45500
1!
1+!
1,!
0N
07"
13!
00!
0.!
1-!
14!
02!
11!
1/!
0^
1`
0_
0L
1J
0K
0/!
15!
04!
12!
05!
#46000
0!
0+!
0,!
1N
#46500
1!
1+!
1,!
0N
17"
1.!
0-!
1^
1L
1/!
#47000
0!
0+!
0,!
1N
#47500
1!
1+!
1,!
0N
07"
10!
0.!
1-!
01!
0/!
0^
1_
0L
1K
11!
1/!
14!
02!
04!
12!
15!
05!
#48000
0!
0+!
0,!
1N
#48500
1!
1+!
1,!
0N
17"
1.!
0-!
1^
1L
01!
0/!
14!
02!
15!
#49000
0!
0+!
0,!
1N
#49500
1!
1+!
1,!
0N
07"
16!
03!
00!
0.!
1-!
07!
05!
04!
12!
11!
1/!
0^
1a
0`
0_
0L
1I
0J
0K
0/!
18!
17!
15!
02!
08!
#50000
0!
0+!
0,!
1N
#50500
1!
1+!
1,!
0N
17"
1.!
0-!
1^
1L
1/!
#51000
0!
0+!
0,!
1N
#51500
1!
1+!
1,!
0N
07"
10!
0.!
1-!
01!
0/!
0^
1_
0L
1K
11!
1/!
12!
02!
#52000
0!
0+!
0,!
1N
#52500
1!
1+!
1,!
0N
17"
1.!
0-!
1^
1L
01!
0/!
12!
#53000
0!
0+!
0,!
1N
#53500
1!
1+!
1,!
0N
07"
13!
00!
0.!
1-!
14!
02!
11!
1/!
0^
1`
0_
0L
1J
0K
0/!
07!
05!
04!
12!
18!
17!
15!
08!
#54000
0!
0+!
0,!
1N
#54500
1!
1+!
1,!
0N
17"
1.!
0-!
1^
1L
1/!
#55000
0!
0+!
0,!
1N
#55500
1!
1+!
1,!
0N
07"
10!
0.!
1-!
01!
0/!
0^
1_
0L
1K
11!
1/!
14!
02!
04!
12!
07!
05!
17!
15!
18!
08!
#56000
0!
0+!
0,!
1N
#56500
1!
1+!
1,!
0N
17"
1.!
0-!
1^
1L
01!
0/!
14!
02!
07!
05!
18!
#57000
0!
0+!
0,!
1N
#57500
1!
1+!
1,!
0N
07"
19!
06!
03!
00!
0.!
1-!
1:!
08!
17!
15!
04!
12!
11!
1/!
0^
1b
0a
0`
0_
0L
1H
0I
0J
0K
0/!
1;!
0:!
18!
05!
02!
0;!
#58000
0!
0+!
0,!
1N
#58500
1!
1+!
1,!
0N
17"
1.!
0-!
1^
1L
1/!
#59000
0!
0+!
0,!
1N
#59500
1!
1+!
1,!
0N
07"
10!
0.!
1-!
01!
0/!
0^
1_
0L
1K
11!
1/!
12!
02!
#60000
0!
0+!
0,!
1N
#60500
1!
1+!
1,!
0N
17"
1.!
0-!
1^
1L
01!
0/!
12!
#61000
0!
0+!
0,!
1N
#61500
1!
1+!
1,!
0N
07"
13!
00!
0.!
1-!
01"
14!
02!
11!
1/!
0^
1`
0_
0L
1J
0K
0/!
05"
15!
04!
12!
06"
05!
18"
#62000
0!
0+!
0,!
1N
#62500
1!
1+!
1,!
0N
19"
09!
03!
11"
08!
02!
1~
0b
0`
1M
0H
0J
15"
16"
08"
#63000
0!
0+!
0,!
1N
#63500
1!
1+!
1,!
0N
09"
17"
1.!
0-!
0~
1^
0M
1L
1/!
#64000
0!
0+!
0,!
1N
#64500
1!
1+!
1,!
0N
07"
10!
0.!
1-!
01!
0/!
0^
1_
0L
1K
11!
1/!
12!
02!
#65000
0!
0+!
0,!
1N
#65500
1!
1+!
1,!
0N
17"
1.!
0-!
1^
1L
01!
0/!
12!
#66000
0!
0+!
0,!
1N
#66500
1!
1+!
1,!
0N
07"
13!
00!
0.!
1-!
14!
02!
11!
1/!
0^
1`
0_
0L
1J
0K
0/!
15!
04!
12!
05!
#67000
0!
0+!
0,!
1N
#67500
1!
1+!
1,!
0N
17"
1.!
0-!
1^
1L
1/!
#68000
0!
0+!
0,!
1N
#68500
1!
1+!
1,!
0N
07"
10!
0.!
1-!
01!
0/!
0^
1_
0L
1K
11!
1/!
14!
02!
04!
12!
15!
05!
#69000
0!
0+!
0,!
1N
#69500
1!
1+!
1,!
0N
17"
1.!
0-!
1^
1L
01!
0/!
14!
02!
15!
#70000
0!
0+!
0,!
1N
#70500
1!
1+!
1,!
0N
07"
16!
03!
00!
0.!
1-!
07!
05!
04!
12!
11!
1/!
0^
1a
0`
0_
0L
1I
0J
0K
0/!
18!
17!
15!
02!
08!
#71000
0!
0+!
0,!
1N
#71500
1!
1+!
1,!
0N
17"
1.!
0-!
1^
1L
1/!
#72000
0!
0+!
0,!
1N
#72500
1!
1+!
1,!
0N
07"
10!
0.!
1-!
01!
0/!
0^
1_
0L
1K
11!
1/!
12!
02!
#73000
0!
0+!
0,!
1N
#73500
1!
1+!
1,!
0N
17"
1.!
0-!
1^
1L
01!
0/!
12!
#74000
0!
0+!
0,!
1N
#74500
1!
1+!
1,!
0N
07"
13!
00!
0.!
1-!
14!
02!
11!
1/!
0^
1`
0_
0L
1J
0K
0/!
07!
05!
04!
12!
18!
17!
15!
08!
#75000
0!
0+!
0,!
1N
#75500
1!
1+!
1,!
0N
17"
1.!
0-!
1^
1L
1/!
#76000
0!
0+!
0,!
1N
#76500
1!
1+!
1,!
0N
07"
10!
0.!
1-!
01!
0/!
0^
1_
0L
1K
11!
1/!
14!
02!
04!
12!
07!
05!
17!
15!
18!
08!
#77000
0!
0+!
0,!
1N
#77500
1!
1+!
1,!
0N
17"
1.!
0-!
1^
1L
01!
0/!
14!
02!
07!
05!
18!
#78000
0!
0+!
0,!
1N
#78500
1!
1+!
1,!
0N
07"
19!
06!
03!
00!
0.!
1-!
1:!
08!
17!
15!
04!
12!
11!
1/!
0^
1b
0a
0`
0_
0L
1H
0I
0J
0K
0/!
1;!
0:!
18!
05!
02!
0;!
#79000
0!
0+!
0,!
1N
#79500
1!
1+!
1,!
0N
17"
1.!
0-!
1^
1L
1/!
#80000
0!
0+!
0,!
1N
#80500
1!
1+!
1,!
0N
07"
10!
0.!
1-!
01!
0/!
0^
1_
0L
1K
11!
1/!
12!
02!
#81000
0!
0+!
0,!
1N
#81500
1!
1+!
1,!
0N
17"
1.!
0-!
1^
1L
01!
0/!
12!
#82000
0!
0+!
0,!
1N
#82500
1!
1+!
1,!
0N
07"
13!
00!
0.!
1-!
01"
14!
02!
11!
1/!
0^
1`
0_
0L
1J
0K
0/!
05"
15!
04!
12!
06"
05!
18"
#83000
0!
0+!
0,!
1N
#83500
1!
1+!
1,!
0N
19"
09!
03!
11"
08!
02!
1~
0b
0`
1M
0H
0J
15"
16"
08"
#84000
0!
0+!
0,!
1N
#84500
1!
1+!
1,!
0N
09"
17"
1.!
0-!
0~
1^
0M
1L
1/!
#85000
0!
0+!
0,!
1N
#85500
1!
1+!
1,!
0N
07"
10!
0.!
1-!
01!
0/!
0^
1_
0L
1K
11!
1/!
12!
02!
#86000
0!
0+!
0,!
1N
#86500
1!
1+!
1,!
0N
17"
1.!
0-!
1^
1L
01!
0/!
12!
#87000
0!
0+!
0,!
1N
#87500
1!
1+!
1,!
0N
07"
13!
00!
0.!
1-!
14!
02!
11!
1/!
0^
1`
0_
0L
1J
0K
0/!
15!
04!
12!
05!
#88000
0!
0+!
0,!
1N
#88500
1!
1+!
1,!
0N
17"
1.!
0-!
1^
1L
1/!
#89000
0!
0+!
0,!
1N
#89500
1!
1+!
1,!
0N
07"
10!
0.!
1-!
01!
0/!
0^
1_
0L
1K
11!
1/!
14!
02!
04!
12!
15!
05!
#90000
0!
0+!
0,!
1N
#90500
1!
1+!
1,!
0N
17"
1.!
0-!
1^
1L
01!
0/!
14!
02!
15!
#91000
0!
0+!
0,!
1N
#91500
1!
1+!
1,!
0N
07"
16!
03!
00!
0.!
1-!
07!
05!
04!
12!
11!
1/!
0^
1a
0`
0_
0L
1I
0J
0K
0/!
18!
17!
15!
02!
08!
#92000
0!
0+!
0,!
1N
#92500
1!
1+!
1,!
0N
17"
1.!
0-!
1^
1L
1/!
#93000
0!
0+!
0,!
1N
#93500
1!
1+!
1,!
0N
07"
10!
0.!
1-!
01!
0/!
0^
1_
0L
1K
11!
1/!
12!
02!
#94000
0!
0+!
0,!
1N
#94500
1!
1+!
1,!
0N
17"
1.!
0-!
1^
1L
01!
0/!
12!
#95000
0!
0+!
0,!
1N
#95500
1!
1+!
1,!
0N
07"
13!
00!
0.!
1-!
14!
02!
11!
1/!
0^
1`
0_
0L
1J
0K
0/!
07!
05!
04!
12!
18!
17!
15!
08!
#96000
0!
0+!
0,!
1N
#96500
1!
1+!
1,!
0N
17"
1.!
0-!
1^
1L
1/!
#97000
0!
0+!
0,!
1N
#97500
1!
1+!
1,!
0N
07"
10!
0.!
1-!
01!
0/!
0^
1_
0L
1K
11!
1/!
14!
02!
04!
12!
07!
05!
17!
15!
18!
08!
#98000
0!
0+!
0,!
1N
#98500
1!
1+!
1,!
0N
17"
1.!
0-!
1^
1L
01!
0/!
14!
02!
07!
05!
18!
#99000
0!
0+!
0,!
1N
#99500
1!
1+!
1,!
0N
07"
19!
06!
03!
00!
0.!
1-!
1:!
08!
17!
15!
04!
12!
11!
1/!
0^
1b
0a
0`
0_
0L
1H
0I
0J
0K
0/!
1;!
0:!
18!
05!
02!
0;!
#100000
0!
0+!
0,!
1N
#100500
1!
1+!
1,!
0N
17"
1.!
0-!
1^
1L
1/!
#101000
0!
0+!
0,!
1N
#101500
1!
1+!
1,!
0N
07"
10!
0.!
1-!
01!
0/!
0^
1_
0L
1K
11!
1/!
12!
02!
#102000
0!
0+!
0,!
1N
#102500
1!
1+!
1,!
0N
17"
1.!
0-!
1^
1L
01!
0/!
12!
#103000
0!
0+!
0,!
1N
#103500
1!
1+!
1,!
0N
07"
13!
00!
0.!
1-!
01"
14!
02!
11!
1/!
0^
1`
0_
0L
1J
0K
0/!
05"
15!
04!
12!
06"
05!
18"
#104000
0!
0+!
0,!
1N
#104500
1!
1+!
1,!
0N
19"
09!
03!
11"
08!
02!
1~
0b
0`
1M
0H
0J
15"
16"
08"
#105000
0!
0+!
0,!
1N
#105500
1!
1+!
1,!
0N
09"
17"
1.!
0-!
0~
1^
0M
1L
1/!
#106000
0!
0+!
0,!
1N
#106500
1!
1+!
1,!
0N
07"
10!
0.!
1-!
01!
0/!
0^
1_
0L
1K
11!
1/!
12!
02!
#107000
0!
0+!
0,!
1N
#107500
1!
1+!
1,!
0N
17"
1.!
0-!
1^
1L
01!
0/!
12!
#108000
0!
0+!
0,!
1N
#108500
1!
1+!
1,!
0N
07"
13!
00!
0.!
1-!
14!
02!
11!
1/!
0^
1`
0_
0L
1J
0K
0/!
15!
04!
12!
05!
#109000
0!
0+!
0,!
1N
#109500
1!
1+!
1,!
0N
17"
1.!
0-!
1^
1L
1/!
#110000
0!
0+!
0,!
1N
#110500
1!
1+!
1,!
0N
07"
10!
0.!
1-!
01!
0/!
0^
1_
0L
1K
11!
1/!
14!
02!
04!
12!
15!
05!
#111000
0!
0+!
0,!
1N
#111500
1!
1+!
1,!
0N
17"
1.!
0-!
1^
1L
01!
0/!
14!
02!
15!
#112000
0!
0+!
0,!
1N
#112500
1!
1+!
1,!
0N
07"
16!
03!
00!
0.!
1-!
07!
05!
04!
12!
11!
1/!
0^
1a
0`
0_
0L
1I
0J
0K
0/!
18!
17!
15!
02!
08!
#113000
0!
0+!
0,!
1N
#113500
1!
1+!
1,!
0N
17"
1.!
0-!
1^
1L
1/!
#114000
0!
0+!
0,!
1N
#114500
1!
1+!
1,!
0N
07"
10!
0.!
1-!
01!
0/!
0^
1_
0L
1K
11!
1/!
12!
02!
#115000
0!
0+!
0,!
1N
#115500
1!
1+!
1,!
0N
17"
1.!
0-!
1^
1L
01!
0/!
12!
